RPC;mz;rt;mz_rt
0;201.86467;0.24;201.86467_0.24
0;283.9111;0.24;283.9111_0.24
0;132.95821;0.25;132.95821_0.25
0;134.95865;0.25;134.95865_0.25
0;146.93794;0.25;146.93794_0.25
0;160.95303;0.25;160.95303_0.25
0;172.98962;0.25;172.98962_0.25
0;249.88617;0.25;249.88617_0.25
0;263.90207;0.25;263.90207_0.25
0;365.78851;0.25;365.78851_0.25
0;145.94031;0.26;145.94031_0.26
0;156.99429;0.26;156.99429_0.26
0;163.97675;0.26;163.97675_0.26
0;166.98402;0.26;166.98402_0.26
0;191.00063;0.26;191.00063_0.26
0;280.88693;0.26;280.88693_0.26
0;301.03772;0.26;301.03772_0.26
0;481.72467;0.26;481.72467_0.26
0;130.96332;0.28;130.96332_0.28
0;318.77295;0.28;318.77295_0.28
0;248.86272;0.35;248.86272_0.35
0;163.02725;0.45;163.02725_0.45
0;202.89583;0.45;202.89583_0.45
0;220.90515;0.45;220.90515_0.45
0;124.97395;0.46;124.97395_0.46
0;165.00685;0.46;165.00685_0.46
0;166.9854;0.46;166.9854_0.46
0;219.05383;0.46;219.05383_0.46
0;442.87686;0.46;442.87686_0.46
0;130.96541;0.47;130.96541_0.47
0;176.97067;0.47;176.97067_0.47
0;256.90762;0.47;256.90762_0.47
0;300.91443;0.47;300.91443_0.47
0;414.89371;0.47;414.89371_0.47
0;311.21759;0.48;311.21759_0.48
0;460.92404;0.48;460.92404_0.48
0;603.85419;0.48;603.85419_0.48
0;613.84546;0.48;613.84546_0.48
0;619.83228;0.48;619.83228_0.48
0;647.83887;0.48;647.83887_0.48
0;670.83655;0.48;670.83655_0.48
0;679.82843;0.48;679.82843_0.48
0;688.81812;0.48;688.81812_0.48
0;689.81982;0.48;689.81982_0.48
0;723.81342;0.48;723.81342_0.48
0;749.82001;0.48;749.82001_0.48
0;757.80621;0.48;757.80621_0.48
0;783.81299;0.48;783.81299_0.48
0;791.80084;0.48;791.80084_0.48
0;817.8075;0.48;817.8075_0.48
0;851.80048;0.48;851.80048_0.48
0;916.77765;0.48;916.77765_0.48
0;968.79034;0.48;968.79034_0.48
0;984.76501;0.48;984.76501_0.48
0;201.05244;0.49;201.05244_0.49
0;574.87402;0.49;574.87402_0.49
0;590.84882;0.49;590.84882_0.49
0;678.71985;0.49;678.71985_0.49
0;738.67432;0.49;738.67432_0.49
0;740.76251;0.49;740.76251_0.49
0;746.7066;0.49;746.7066_0.49
0;754.64893;0.49;754.64893_0.49
0;772.71021;0.49;772.71021_0.49
0;778.79041;0.49;778.79041_0.49
0;794.76422;0.49;794.76422_0.49
0;796.63324;0.49;796.63324_0.49
0;824.72314;0.49;824.72314_0.49
0;1012.69983;0.49;1012.69983_0.49
0;189.15965;0.5;189.15965_0.5
0;192.07414;0.5;192.07414_0.5
0;192.90891;0.5;192.90891_0.5
0;226.86214;0.5;226.86214_0.5
0;266.84174;0.5;266.84174_0.5
0;287.06857;0.5;287.06857_0.5
0;300.79431;0.5;300.79431_0.5
0;410.6748;0.5;410.6748_0.5
0;428.82794;0.5;428.82794_0.5
0;442.80396;0.5;442.80396_0.5
0;484.69882;0.5;484.69882_0.5
0;540.66101;0.5;540.66101_0.5
0;660.66083;0.5;660.66083_0.5
0;686.66315;0.5;686.66315_0.5
0;748.48816;0.5;748.48816_0.5
0;748.73773;0.5;748.73773_0.5
0;774.74347;0.5;774.74347_0.5
0;846.77698;0.5;846.77698_0.5
0;156.07646;0.51;156.07646_0.51
0;156.87712;0.51;156.87712_0.51
0;161.1284;0.51;161.1284_0.51
0;175.11905;0.51;175.11905_0.51
0;212.8387;0.51;212.8387_0.51
0;214.8362;0.51;214.8362_0.51
0;216.83316;0.51;216.83316_0.51
0;222.98788;0.51;222.98788_0.51
0;826.37;0.51;826.37_0.51
0;134.01875;0.52;134.01875_0.52
0;150.01347;0.52;150.01347_0.52
0;185.03162;0.52;185.03162_0.52
0;316.98526;0.52;316.98526_0.52
0;127.86181;0.53;127.86181_0.53
0;140.06833;0.53;140.06833_0.53
0;180.00342;0.53;180.00342_0.53
0;371.10123;0.53;371.10123_0.53
0;492.8418;0.53;492.8418_0.53
0;137.07085;0.54;137.07085_0.54
0;156.04192;0.54;156.04192_0.54
0;162.11212;0.54;162.11212_0.54
0;183.08633;0.54;183.08633_0.54
0;184.09369;0.54;184.09369_0.54
0;193.15482;0.54;193.15482_0.54
0;205.06801;0.54;205.06801_0.54
0;221.04202;0.54;221.04202_0.54
0;221.18587;0.54;221.18587_0.54
0;270.11804;0.54;270.11804_0.54
0;152.02165;0.55;152.02165_0.55
0;166.05304;0.55;166.05304_0.55
0;175.05754;0.55;175.05754_0.55
0;235.16518;0.55;235.16518_0.55
0;263.08521;0.55;263.08521_0.55
0;170.04221;0.56;170.04221_0.56
0;282.99573;0.56;282.99573_0.56
0;320.13187;0.56;320.13187_0.56
0;129.0659;0.57;129.0659_0.57
0;146.11714;0.57;146.11714_0.57
0;191.10255;0.57;191.10255_0.57
0;194.00461;0.57;194.00461_0.57
0;249.15561;0.57;249.15561_0.57
0;359.04398;0.57;359.04398_0.57
0;132.07686;0.58;132.07686_0.58
0;138.05457;0.58;138.05457_0.58
0;220.06598;0.58;220.06598_0.58
0;222.19653;0.58;222.19653_0.58
0;263.14621;0.58;263.14621_0.58
0;365.10556;0.58;365.10556_0.58
0;424.16684;0.58;424.16684_0.58
0;645.12592;0.58;645.12592_0.58
0;205.11816;0.59;205.11816_0.59
0;275.17099;0.59;275.17099_0.59
0;276.11877;0.59;276.11877_0.59
0;333.05157;0.59;333.05157_0.59
0;187.05754;0.6;187.05754_0.6
0;190.11859;0.6;190.11859_0.6
0;219.17024;0.6;219.17024_0.6
0;249.10773;0.6;249.10773_0.6
0;261.18115;0.6;261.18115_0.6
0;271.03928;0.6;271.03928_0.6
0;315.07935;0.6;315.07935_0.6
0;349.01736;0.6;349.01736_0.6
0;638.09918;0.6;638.09918_0.6
0;660.08124;0.6;660.08124_0.6
0;143.08199;0.61;143.08199_0.61
0;171.07578;0.61;171.07578_0.61
0;190.07108;0.61;190.07108_0.61
0;217.08232;0.61;217.08232_0.61
0;229.11835;0.61;229.11835_0.61
0;230.09586;0.61;230.09586_0.61
0;263.99268;0.61;263.99268_0.61
0;267.00089;0.61;267.00089_0.61
0;521.20844;0.61;521.20844_0.61
0;175.10786;0.62;175.10786_0.62
0;176.12825;0.62;176.12825_0.62
0;217.15454;0.62;217.15454_0.62
0;224.12746;0.62;224.12746_0.62
0;367.991;0.62;367.991_0.62
0;381.98441;0.63;381.98441_0.63
0;181.98776;0.64;181.98776_0.64
0;143.03165;0.65;143.03165_0.65
0;203.05304;0.65;203.05304_0.65
0;389.97275;0.66;389.97275_0.66
0;223.09363;0.67;223.09363_0.67
0;242.01503;0.67;242.01503_0.67
0;337.01434;0.67;337.01434_0.67
0;371.02045;0.67;371.02045_0.67
0;207.96706;0.68;207.96706_0.68
0;131.05357;0.69;131.05357_0.69
0;146.02727;0.69;146.02727_0.69
0;174.08737;0.69;174.08737_0.69
0;188.10295;0.69;188.10295_0.69
0;203.13908;0.69;203.13908_0.69
0;204.12308;0.69;204.12308_0.69
0;222.11284;0.69;222.11284_0.69
0;122.0966;0.7;122.0966_0.7
0;123.05531;0.7;123.05531_0.7
0;130.08624;0.7;130.08624_0.7
0;132.10191;0.7;132.10191_0.7
0;139.0502;0.7;139.0502_0.7
0;148.09727;0.7;148.09727_0.7
0;152.07054;0.7;152.07054_0.7
0;153.06552;0.7;153.06552_0.7
0;154.08391;0.7;154.08391_0.7
0;156.07658;0.7;156.07658_0.7
0;158.11758;0.7;158.11758_0.7
0;174.14891;0.7;174.14891_0.7
0;185.09167;0.7;185.09167_0.7
0;189.1234;0.7;189.1234_0.7
0;215.13884;0.7;215.13884_0.7
0;218.1384;0.7;218.1384_0.7
0;222.04276;0.7;222.04276_0.7
0;226.08214;0.7;226.08214_0.7
0;247.12842;0.7;247.12842_0.7
0;248.14908;0.7;248.14908_0.7
0;262.16428;0.7;262.16428_0.7
0;298.13147;0.7;298.13147_0.7
0;348.07007;0.7;348.07007_0.7
0;426.14914;0.7;426.14914_0.7
0;514.03644;0.7;514.03644_0.7
0;164.07393;0.71;164.07393_0.71
0;210.06078;0.71;210.06078_0.71
0;245.14952;0.71;245.14952_0.71
0;376.17126;0.71;376.17126_0.71
0;189.00664;0.72;189.00664_0.72
0;221.09207;0.72;221.09207_0.72
0;189.05249;0.73;189.05249_0.73
0;208.1328;0.74;208.1328_0.74
0;229.00259;0.74;229.00259_0.74
0;242.98268;0.74;242.98268_0.74
0;173.07816;0.75;173.07816_0.75
0;151.09619;0.78;151.09619_0.78
0;233.98209;0.9;233.98209_0.9
0;207.96642;0.91;207.96642_0.91
0;153.04076;1.23;153.04076_1.23
0;209.09189;1.35;209.09189_1.35
0;132.10204;1.48;132.10204_1.48
0;218.13843;1.48;218.13843_1.48
0;204.97969;1.69;204.97969_1.69
0;235.99791;1.69;235.99791_1.69
0;153.06593;1.73;153.06593_1.73
0;221.09207;1.73;221.09207_1.73
0;229.15459;1.73;229.15459_1.73
0;169.09721;1.76;169.09721_1.76
0;212.09175;1.85;212.09175_1.85
0;232.15385;1.89;232.15385_1.89
0;240.10178;2.12;240.10178_2.12
0;217.10466;2.15;217.10466_2.15
0;195.12238;2.16;195.12238_2.16
0;232.15434;2.26;232.15434_2.26
0;144.08095;2.56;144.08095_2.56
0;152.07076;2.57;152.07076_2.57
0;316.09616;2.57;316.09616_2.57
0;195.12265;2.64;195.12265_2.64
0;312.01505;2.66;312.01505_2.66
0;312.13007;2.75;312.13007_2.75
0;305.08658;2.77;305.08658_2.77
0;239.14899;2.88;239.14899_2.88
0;157.08319;2.94;157.08319_2.94
0;130.06456;2.95;130.06456_2.95
0;198.17142;3.01;198.17142_3.01
0;269.12595;3.06;269.12595_3.06
0;181.07167;3.13;181.07167_3.13
0;246.17;3.17;246.17_3.17
0;261.14386;3.45;261.14386_3.45
0;280.15427;3.45;280.15427_3.45
0;190.04999;3.58;190.04999_3.58
0;194.13571;3.63;194.13571_3.63
0;248.03432;3.69;248.03432_3.69
0;193.17003;3.7;193.17003_3.7
0;235.1808;3.7;235.1808_3.7
0;265.11823;3.71;265.11823_3.71
0;197.12849;3.72;197.12849_3.72
0;210.19646;3.88;210.19646_3.88
0;203.15422;3.89;203.15422_3.89
0;221.16487;3.95;221.16487_3.95
0;266.15961;4.1;266.15961_4.1
0;271.11588;4.1;271.11588_4.1
0;135.04391;4.2;135.04391_4.2
0;260.18558;4.3;260.18558_4.3
0;160.13338;4.38;160.13338_4.38
0;431.18854;4.47;431.18854_4.47
0;249.13368;4.57;249.13368_4.57
0;271.11517;4.57;271.11517_4.57
0;211.14365;4.72;211.14365_4.72
0;248.16455;4.72;248.16455_4.72
0;342.15137;4.75;342.15137_4.75
0;211.1441;4.84;211.1441_4.84
0;313.15463;4.84;313.15463_4.84
0;236.11357;4.86;236.11357_4.86
0;257.04236;4.87;257.04236_4.87
0;357.2355;5.01;357.2355_5.01
0;399.01794;5.06;399.01794_5.06
0;588.40869;5.07;588.40869_5.07
0;393.11539;5.11;393.11539_5.11
0;277.11816;5.31;277.11816_5.31
0;343.13651;5.31;343.13651_5.31
0;286.20108;5.32;286.20108_5.32
0;338.18011;5.32;338.18011_5.32
0;260.02292;5.34;260.02292_5.34
0;418.2583;5.4;418.2583_5.4
0;254.96115;5.41;254.96115_5.41
0;673.34027;5.5;673.34027_5.5
0;167.10472;5.52;167.10472_5.52
0;591.22583;5.56;591.22583_5.56
0;239.09134;5.61;239.09134_5.61
0;326.08539;5.73;326.08539_5.73
0;185.11461;5.77;185.11461_5.77
0;310.20108;5.77;310.20108_5.77
0;566.42749;5.78;566.42749_5.78
0;475.21558;5.87;475.21558_5.87
0;517.23193;5.97;517.23193_5.97
0;761.38184;5.99;761.38184_5.99
0;195.13747;6;195.13747_6
0;253.22731;6.03;253.22731_6.03
0;310.20117;6.06;310.20117_6.06
0;514.28564;6.07;514.28564_6.07
0;467.14423;6.08;467.14423_6.08
0;288.21692;6.12;288.21692_6.12
0;163.07567;6.16;163.07567_6.16
0;625.31592;6.16;625.31592_6.16
0;549.25055;6.17;549.25055_6.17
0;416.3519;6.21;416.3519_6.21
0;544.2959;6.21;544.2959_6.21
0;341.09845;6.24;341.09845_6.24
0;320.17044;6.25;320.17044_6.25
0;223.14423;6.3;223.14423_6.3
0;532.33246;6.36;532.33246_6.36
0;591.26184;6.36;591.26184_6.36
0;211.09679;6.51;211.09679_6.51
0;291.20642;6.61;291.20642_6.61
0;314.18619;6.63;314.18619_6.63
0;414.33615;6.64;414.33615_6.64
0;167.14297;6.68;167.14297_6.68
0;561.24988;6.7;561.24988_6.7
0;601.1886;6.7;601.1886_6.7
0;361.20078;6.79;361.20078_6.79
0;767.36591;6.79;767.36591_6.79
0;389.1228;6.81;389.1228_6.81
0;395.17825;6.81;395.17825_6.81
0;441.17249;6.81;441.17249_6.81
0;392.69846;6.82;392.69846_6.82
0;469.16986;6.83;469.16986_6.83
0;496.2074;6.88;496.2074_6.88
0;461.13367;7;461.13367_7
0;331.22662;7.03;331.22662_7.03
0;363.2164;7.03;363.2164_7.03
0;582.31226;7.07;582.31226_7.07
0;318.60815;7.08;318.60815_7.08
0;347.17026;7.08;347.17026_7.08
0;589.22546;7.08;589.22546_7.08
0;295.11276;7.09;295.11276_7.09
0;585.27136;7.24;585.27136_7.24
0;319.23801;7.25;319.23801_7.25
0;661.24634;7.25;661.24634_7.25
0;580.36737;7.26;580.36737_7.26
0;560.36401;7.27;560.36401_7.27
0;371.20462;7.31;371.20462_7.31
0;328.24808;7.35;328.24808_7.35
0;316.24789;7.37;316.24789_7.37
0;367.26938;7.37;367.26938_7.37
0;389.25;7.37;389.25_7.37
0;213.14635;7.43;213.14635_7.43
0;429.21725;7.48;429.21725_7.48
0;177.05519;7.49;177.05519_7.49
0;223.09471;7.49;223.09471_7.49
0;245.07863;7.49;245.07863_7.49
0;251.12523;7.5;251.12523_7.5
0;513.30548;7.5;513.30548_7.5
0;316.11783;7.52;316.11783_7.52
0;400.20123;7.54;400.20123_7.54
0;419.17502;7.54;419.17502_7.54
0;430.17233;7.56;430.17233_7.56
0;158.15402;7.65;158.15402_7.65
0;180.13562;7.65;180.13562_7.65
0;195.10179;7.68;195.10179_7.68
0;248.23718;7.69;248.23718_7.69
0;401.09485;7.69;401.09485_7.69
0;226.18013;7.71;226.18013_7.71
0;277.14069;7.72;277.14069_7.72
0;377.27972;7.76;377.27972_7.76
0;445.27597;7.77;445.27597_7.77
0;128.83879;7.78;128.83879_7.78
0;303.2066;7.78;303.2066_7.78
0;777.69238;7.78;777.69238_7.78
0;228.1958;7.79;228.1958_7.79
0;301.07376;7.81;301.07376_7.81
0;643.25745;7.82;643.25745_7.82
0;325.05942;7.83;325.05942_7.83
0;543.76843;7.84;543.76843_7.84
0;546.24615;7.84;546.24615_7.84
0;205.12254;7.85;205.12254_7.85
0;179.1068;7.87;179.1068_7.87
0;272.12799;7.95;272.12799_7.95
0;342.26379;7.95;342.26379_7.95
0;425.31046;7.95;425.31046_7.95
0;447.29202;7.95;447.29202_7.95
0;451.15161;7.97;451.15161_7.97
0;700.38904;8.02;700.38904_8.02
0;385.12894;8.05;385.12894_8.05
0;431.26062;8.12;431.26062_8.12
0;335.09485;8.13;335.09485_8.13
0;339.05362;8.13;339.05362_8.13
0;499.26547;8.14;499.26547_8.14
0;531.38556;8.14;531.38556_8.14
0;553.45819;8.14;553.45819_8.14
0;575.4115;8.14;575.4115_8.14
0;149.09616;8.17;149.09616_8.17
0;621.35931;8.17;621.35931_8.17
0;363.22772;8.22;363.22772_8.22
0;343.20975;8.25;343.20975_8.25
0;344.27936;8.25;344.27936_8.25
0;311.1853;8.27;311.1853_8.27
0;503.3186;8.28;503.3186_8.28
0;466.31586;8.3;466.31586_8.3
0;405.26352;8.31;405.26352_8.31
0;227.20085;8.32;227.20085_8.32
0;524.16241;8.32;524.16241_8.32
0;302.21481;8.36;302.21481_8.36
0;249.18484;8.37;249.18484_8.37
0;295.1904;8.39;295.1904_8.39
0;269.17459;8.4;269.17459_8.4
0;209.1537;8.41;209.1537_8.41
0;324.15936;8.46;324.15936_8.46
0;365.24301;8.47;365.24301_8.47
0;167.07034;8.51;167.07034_8.51
0;195.10162;8.51;195.10162_8.51
0;593.13007;8.54;593.13007_8.54
0;661.34399;8.57;661.34399_8.57
0;239.16174;8.59;239.16174_8.59
0;370.29514;8.59;370.29514_8.59
0;199.16922;8.61;199.16922_8.61
0;245.11562;8.61;245.11562_8.61
0;251.12787;8.64;251.12787_8.64
0;293.17465;8.68;293.17465_8.68
0;556.4035;8.7;556.4035_8.7
0;561.35895;8.7;561.35895_8.7
0;657.14233;8.7;657.14233_8.7
0;448.30603;8.71;448.30603_8.71
0;439.15216;8.72;439.15216_8.72
0;479.18256;8.72;479.18256_8.72
0;296.02383;8.75;296.02383_8.75
0;195.13795;8.81;195.13795_8.81
0;558.41962;8.81;558.41962_8.81
0;721.15466;8.81;721.15466_8.81
0;541.39349;8.82;541.39349_8.82
0;330.24606;8.85;330.24606_8.85
0;319.08463;8.87;319.08463_8.87
0;396.29584;8.89;396.29584_8.89
0;512.33441;8.89;512.33441_8.89
0;153.12726;8.91;153.12726_8.91
0;345.27463;8.91;345.27463_8.91
0;379.26953;8.91;379.26953_8.91
0;424.30533;8.92;424.30533_8.92
0;534.31622;8.93;534.31622_8.93
0;270.27899;8.95;270.27899_8.95
0;469.18805;8.96;469.18805_8.96
0;658.35742;8.97;658.35742_8.97
0;389.12955;8.98;389.12955_8.98
0;376.32086;9.01;376.32086_9.01
0;514.33765;9.02;514.33765_9.02
0;349.06003;9.04;349.06003_9.04
0;125.52987;9.05;125.52987_9.05
0;285.2576;9.05;285.2576_9.05
0;303.10153;9.05;303.10153_9.05
0;614.44824;9.05;614.44824_9.05
0;619.40308;9.05;619.40308_9.05
0;146.01237;9.06;146.01237_9.06
0;653.14899;9.06;653.14899_9.06
0;291.19513;9.07;291.19513_9.07
0;504.38321;9.08;504.38321_9.08
0;299.16248;9.09;299.16248_9.09
0;575.30542;9.09;575.30542_9.09
0;616.46045;9.13;616.46045_9.13
0;313.23724;9.15;313.23724_9.15
0;626.18604;9.17;626.18604_9.17
0;298.3103;9.2;298.3103_9.2
0;219.17438;9.21;219.17438_9.21
0;394.21954;9.22;394.21954_9.22
0;440.27704;9.23;440.27704_9.23
0;467.3479;9.26;467.3479_9.26
0;263.20056;9.29;263.20056_9.29
0;358.27719;9.29;358.27719_9.29
0;658.35767;9.35;658.35767_9.35
0;677.4425;9.35;677.4425_9.35
0;236.22214;9.36;236.22214_9.36
0;310.31012;9.36;310.31012_9.36
0;289.15283;9.37;289.15283_9.37
0;227.20044;9.4;227.20044_9.4
0;267.17191;9.4;267.17191_9.4
0;450.32132;9.4;450.32132_9.4
0;269.24704;9.41;269.24704_9.41
0;601.39136;9.41;601.39136_9.41
0;221.15353;9.42;221.15353_9.42
0;309.10077;9.42;309.10077_9.42
0;679.45813;9.42;679.45813_9.42
0;310.20142;9.44;310.20142_9.44
0;149.02332;9.46;149.02332_9.46
0;200.20155;9.46;200.20155_9.46
0;298.31015;9.46;298.31015_9.46
0;301.14081;9.46;301.14081_9.46
0;313.14325;9.48;313.14325_9.48
0;335.12546;9.48;335.12546_9.48
0;501.3208;9.48;501.3208_9.48
0;647.26147;9.48;647.26147_9.48
0;426.35748;9.51;426.35748_9.51
0;540.36523;9.51;540.36523_9.51
0;217.14334;9.52;217.14334_9.52
0;487.2583;9.52;487.2583_9.52
0;583.37482;9.53;583.37482_9.53
0;597.39984;9.53;597.39984_9.53
0;571.37109;9.54;571.37109_9.54
0;807.16882;9.55;807.16882_9.55
0;276.2684;9.56;276.2684_9.56
0;195.17451;9.58;195.17451_9.58
0;285.24274;9.58;285.24274_9.58
0;383.20398;9.58;383.20398_9.58
0;871.18115;9.6;871.18115_9.6
0;280.26358;9.61;280.26358_9.61
0;866.22559;9.61;866.22559_9.61
0;339.25018;9.62;339.25018_9.62
0;378.24017;9.62;378.24017_9.62
0;233.16803;9.63;233.16803_9.63
0;594.15955;9.65;594.15955_9.65
0;219.25725;9.66;219.25725_9.66
0;577.13354;9.66;577.13354_9.66
0;599.11475;9.66;599.11475_9.66
0;732.54584;9.66;732.54584_9.66
0;737.50092;9.66;737.50092_9.66
0;611.3244;9.71;611.3244_9.71
0;226.21667;9.74;226.21667_9.74
0;278.17468;9.75;278.17468_9.75
0;279.23175;9.77;279.23175_9.77
0;288.25232;9.78;288.25232_9.78
0;310.23819;9.78;310.23819_9.78
0;315.19257;9.78;315.19257_9.78
0;434.32617;9.8;434.32617_9.8
0;408.25879;9.83;408.25879_9.83
0;469.18539;9.83;469.18539_9.83
0;455.31287;9.85;455.31287_9.85
0;406.78809;9.88;406.78809_9.88
0;629.36511;9.89;629.36511_9.89
0;790.5874;9.89;790.5874_9.89
0;795.54297;9.89;795.54297_9.89
0;309.20392;9.91;309.20392_9.91
0;199.16927;9.92;199.16927_9.92
0;303.2319;9.94;303.2319_9.94
0;426.26157;9.95;426.26157_9.95
0;431.31564;9.96;431.31564_9.96
0;453.29755;9.97;453.29755_9.97
0;627.41125;9.99;627.41125_9.99
0;290.63913;10.02;290.63913_10.02
0;264.26862;10.03;264.26862_10.03
0;387.7522;10.03;387.7522_10.03
0;434.80243;10.04;434.80243_10.04
0;639.40784;10.05;639.40784_10.05
0;642.47827;10.07;642.47827_10.07
0;323.21936;10.08;323.21936_10.08
0;435.80899;10.08;435.80899_10.08
0;601.39417;10.08;601.39417_10.08
0;205.19522;10.09;205.19522_10.09
0;848.62799;10.09;848.62799_10.09
0;255.23178;10.11;255.23178_10.11
0;271.22659;10.11;271.22659_10.11
0;295.22433;10.11;295.22433_10.11
0;1073.59973;10.14;1073.59973_10.14
0;712.396;10.15;712.396_10.15
0;313.27341;10.18;313.27341_10.18
0;520.3407;10.18;520.3407_10.18
0;1063.67224;10.18;1063.67224_10.18
0;321.24011;10.19;321.24011_10.19
0;1039.67334;10.19;1039.67334_10.19
0;503.29602;10.2;503.29602_10.2
0;543.32562;10.2;543.32562_10.2
0;265.25266;10.21;265.25266_10.21
0;482.32428;10.23;482.32428_10.23
0;260.6387;10.24;260.6387_10.24
0;339.25006;10.24;339.25006_10.24
0;466.2999;10.24;466.2999_10.24
0;170.11777;10.27;170.11777_10.27
0;172.13362;10.27;172.13362_10.27
0;303.64713;10.27;303.64713_10.27
0;389.33755;10.27;389.33755_10.27
0;574.43066;10.27;574.43066_10.27
0;911.62573;10.27;911.62573_10.27
0;186.14867;10.28;186.14867_10.28
0;352.24551;10.28;352.24551_10.28
0;471.34659;10.28;471.34659_10.28
0;434.25598;10.29;434.25598_10.29
0;454.32907;10.29;454.32907_10.29
0;681.50214;10.29;681.50214_10.29
0;300.26117;10.3;300.26117_10.3
0;1039.67102;10.3;1039.67102_10.3
0;1063.67126;10.3;1063.67126_10.3
0;1085.65198;10.3;1085.65198_10.3
0;1086.65515;10.3;1086.65515_10.3
0;288.63376;10.31;288.63376_10.31
0;504.30771;10.31;504.30771_10.31
0;558.29535;10.31;558.29535_10.31
0;1043.60645;10.32;1043.60645_10.32
0;276.63342;10.33;276.63342_10.33
0;521.23364;10.35;521.23364_10.35
0;991.67236;10.35;991.67236_10.35
0;352.24545;10.36;352.24545_10.36
0;496.34076;10.36;496.34076_10.36
0;518.32141;10.36;518.32141_10.36
0;637.49396;10.36;637.49396_10.36
0;743.38434;10.36;743.38434_10.36
0;1013.65479;10.36;1013.65479_10.36
0;1037.65283;10.36;1037.65283_10.36
0;188.12787;10.37;188.12787_10.37
0;508.33948;10.37;508.33948_10.37
0;681.5022;10.37;681.5022_10.37
0;172.13292;10.38;172.13292_10.38
0;283.26334;10.38;283.26334_10.38
0;765.98712;10.38;765.98712_10.38
0;381.33655;10.4;381.33655_10.4
0;255.25116;10.41;255.25116_10.41
0;493.85211;10.41;493.85211_10.41
0;324.25912;10.42;324.25912_10.42
0;562.40063;10.43;562.40063_10.43
0;992.67682;10.43;992.67682_10.43
0;330.24274;10.44;330.24274_10.44
0;451.36313;10.44;451.36313_10.44
0;513.41962;10.44;513.41962_10.44
0;300.26071;10.45;300.26071_10.45
0;498.3476;10.45;498.3476_10.45
0;528.30792;10.45;528.30792_10.45
0;424.36325;10.46;424.36325_10.46
0;469.38965;10.46;469.38965_10.46
0;385.29224;10.47;385.29224_10.47
0;425.36304;10.47;425.36304_10.47
0;533.19342;10.47;533.19342_10.47
0;336.31042;10.48;336.31042_10.48
0;341.26566;10.48;341.26566_10.48
0;496.33975;10.48;496.33975_10.48
0;518.32196;10.48;518.32196_10.48
0;522.7948;10.48;522.7948_10.48
0;535.26697;10.48;535.26697_10.48
0;550.29047;10.48;550.29047_10.48
0;765.98828;10.48;765.98828_10.48
0;771.96637;10.48;771.96637_10.48
0;1002.65961;10.48;1002.65961_10.48
0;1013.65308;10.48;1013.65308_10.48
0;1020.633;10.48;1020.633_10.48
0;281.24747;10.49;281.24747_10.49
0;833.97693;10.49;833.97693_10.49
0;949.62421;10.49;949.62421_10.49
0;386.29611;10.5;386.29611_10.5
0;1035.65564;10.51;1035.65564_10.51
0;385.29224;10.52;385.29224_10.52
0;510.35626;10.53;510.35626_10.53
0;1062.65686;10.54;1062.65686_10.54
0;509.34393;10.56;509.34393_10.56
0;654.33148;10.56;654.33148_10.56
0;659.28693;10.56;659.28693_10.56
0;540.36615;10.58;540.36615_10.58
0;1089.6156;10.58;1089.6156_10.58
0;1017.68732;10.59;1017.68732_10.59
0;548.81134;10.6;548.81134_10.6
0;289.65964;10.61;289.65964_10.61
0;290.63861;10.61;290.63861_10.61
0;671.3924;10.61;671.3924_10.61
0;283.26324;10.62;283.26324_10.62
0;315.25314;10.63;315.25314_10.63
0;321.23999;10.63;321.23999_10.63
0;323.2558;10.63;323.2558_10.63
0;337.23508;10.63;337.23508_10.63
0;151.09669;10.64;151.09669_10.64
0;299.25848;10.64;299.25848_10.64
0;349.272;10.64;349.272_10.64
0;370.29477;10.64;370.29477_10.64
0;400.31146;10.65;400.31146_10.65
0;482.4053;10.65;482.4053_10.65
0;438.37912;10.66;438.37912_10.66
0;487.36099;10.66;487.36099_10.66
0;526.4317;10.66;526.4317_10.66
0;531.3869;10.67;531.3869_10.67
0;532.39056;10.67;532.39056_10.67
0;752.52051;10.67;752.52051_10.67
0;685.50964;10.68;685.50964_10.68
0;707.49139;10.68;707.49139_10.68
0;377.32614;10.69;377.32614_10.69
0;443.3342;10.69;443.3342_10.69
0;465.37875;10.69;465.37875_10.69
0;663.46509;10.69;663.46509_10.69
0;751.48572;10.69;751.48572_10.69
0;352.73074;10.7;352.73074_10.7
0;421.35245;10.7;421.35245_10.7
0;438.29803;10.7;438.29803_10.7
0;279.24863;10.71;279.24863_10.71
0;957.63153;10.71;957.63153_10.71
0;301.21317;10.72;301.21317_10.72
0;612.5556;10.73;612.5556_10.73
0;506.32321;10.74;506.32321_10.74
0;323.25549;10.75;323.25549_10.75
0;440.31653;10.75;440.31653_10.75
0;582.45697;10.75;582.45697_10.75
0;548.33466;10.76;548.33466_10.76
0;321.24008;10.77;321.24008_10.77
0;581.44281;10.77;581.44281_10.77
0;583.39276;10.78;583.39276_10.78
0;506.3605;10.79;506.3605_10.79
0;561.9115;10.79;561.9115_10.79
0;326.30524;10.8;326.30524_10.8
0;340.16943;10.82;340.16943_10.82
0;269.22586;10.85;269.22586_10.85
0;353.26605;10.85;353.26605_10.85
0;530.3689;10.85;530.3689_10.85
0;508.37558;10.86;508.37558_10.86
0;648.50452;10.86;648.50452_10.86
0;285.22128;10.87;285.22128_10.87
0;563.50372;10.88;563.50372_10.88
0;369.29742;10.89;369.29742_10.89
0;453.39386;10.89;453.39386_10.89
0;523.41974;10.89;523.41974_10.89
0;298.69092;10.9;298.69092_10.9
0;413.32278;10.9;413.32278_10.9
0;985.65955;10.9;985.65955_10.9
0;364.34177;10.91;364.34177_10.91
0;458.35355;10.91;458.35355_10.91
0;482.32346;10.91;482.32346_10.91
0;504.30737;10.91;504.30737_10.91
0;562.32629;10.92;562.32629_10.92
0;270.27899;10.93;270.27899_10.93
0;403.32983;10.93;403.32983_10.93
0;501.37646;10.93;501.37646_10.93
0;323.25711;10.94;323.25711_10.94
0;457.35001;10.94;457.35001_10.94
0;325.21127;10.97;325.21127_10.97
0;641.43347;10.99;641.43347_10.99
0;600.40143;11;600.40143_11
0;579.58221;11.02;579.58221_11.02
0;354.2514;11.04;354.2514_11.04
0;384.34741;11.06;384.34741_11.06
0;406.32874;11.06;406.32874_11.06
0;508.37555;11.09;508.37555_11.09
0;491.37094;11.1;491.37094_11.1
0;691.55298;11.1;691.55298_11.1
0;512.35895;11.11;512.35895_11.11
0;538.38568;11.12;538.38568_11.12
0;469.32837;11.14;469.32837_11.14
0;284.29361;11.15;284.29361_11.15
0;306.27594;11.15;306.27594_11.15
0;345.1933;11.15;345.1933_11.15
0;377.2113;11.15;377.2113_11.15
0;279.23007;11.16;279.23007_11.16
0;422.33911;11.16;422.33911_11.16
0;510.39151;11.16;510.39151_11.16
0;589.53406;11.16;589.53406_11.16
0;688.01202;11.16;688.01202_11.16
0;708.46143;11.17;708.46143_11.17
0;389.3772;11.18;389.3772_11.18
0;524.37122;11.18;524.37122_11.18
0;681.42847;11.18;681.42847_11.18
0;665.39563;11.19;665.39563_11.19
0;343.33975;11.23;343.33975_11.23
0;536.40686;11.23;536.40686_11.23
0;371.20789;11.24;371.20789_11.24
0;576.30377;11.24;576.30377_11.24
0;755.5307;11.24;755.5307_11.24
0;339.18271;11.25;339.18271_11.25
0;619.61353;11.25;619.61353_11.25
0;547.38818;11.29;547.38818_11.29
0;552.40137;11.3;552.40137_11.3
0;542.44141;11.35;542.44141_11.35
0;351.28677;11.36;351.28677_11.36
0;832.63416;11.36;832.63416_11.36
0;688.49719;11.38;688.49719_11.38
0;450.35687;11.39;450.35687_11.39
0;149.02316;11.4;149.02316_11.4
0;398.34067;11.4;398.34067_11.4
0;508.45694;11.4;508.45694_11.4
0;509.49277;11.41;509.49277_11.41
0;621.3089;11.41;621.3089_11.41
0;696.47443;11.41;696.47443_11.41
0;680.38342;11.42;680.38342_11.42
0;638.33606;11.43;638.33606_11.43
0;371.3158;11.44;371.3158_11.44
0;393.29803;11.51;393.29803_11.51
0;709.37878;11.56;709.37878_11.56
0;737.15802;11.56;737.15802_11.56
0;324.32623;11.6;324.32623_11.6
0;597.4483;11.6;597.4483_11.6
0;619.49072;11.6;619.49072_11.6
0;813.57245;11.6;813.57245_11.6
0;312.32574;11.61;312.32574_11.61
0;373.22412;11.61;373.22412_11.61
0;683.33026;11.61;683.33026_11.61
0;426.4306;11.63;426.4306_11.63
0;397.41449;11.68;397.41449_11.68
0;640.41321;11.69;640.41321_11.69
0;338.28754;11.71;338.28754_11.71
0;549.52423;11.73;549.52423_11.73
0;462.14716;11.75;462.14716_11.75
0;564.53558;11.75;564.53558_11.75
0;647.51202;11.75;647.51202_11.75
0;440.44528;11.76;440.44528_11.76
0;693.42468;11.78;693.42468_11.78
0;992.7442;11.79;992.7442_11.79
0;665.43134;11.82;665.43134_11.82
0;698.45374;11.84;698.45374_11.84
0;673.52557;11.85;673.52557_11.85
0;983.73334;11.85;983.73334_11.85
0;654.60187;11.86;654.60187_11.86
0;570.50928;11.87;570.50928_11.87
0;579.58124;11.87;579.58124_11.87
0;819.62372;11.88;819.62372_11.88
0;412.37851;11.92;412.37851_11.92
0;799.64142;11.94;799.64142_11.94
0;580.51349;11.97;580.51349_11.97
0;539.50305;12;539.50305_12
0;604.47296;12.03;604.47296_12.03
0;426.39322;12.08;426.39322_12.08
0;668.61792;12.08;668.61792_12.08
0;509.34985;12.09;509.34985_12.09
0;551.53943;12.09;551.53943_12.09
0;568.53046;12.09;568.53046_12.09
0;362.34009;12.12;362.34009_12.12
0;558.45154;12.12;558.45154_12.12
0;502.46054;12.13;502.46054_12.13
0;596.56085;12.13;596.56085_12.13
0;581.56213;12.14;581.56213_12.14
0;558.45135;12.19;558.45135_12.19
0;536.16589;12.23;536.16589_12.23
0;610.57654;12.24;610.57654_12.24
0;557.09564;12.28;557.09564_12.28
0;593.55035;12.34;593.55035_12.34
0;584.56073;12.42;584.56073_12.42
0;435.32599;12.44;435.32599_12.44
0;591.5708;12.46;591.5708_12.46
0;440.40903;12.51;440.40903_12.51
0;561.56024;12.54;561.56024_12.54
0;652.62445;12.54;652.62445_12.54
0;640.58612;12.55;640.58612_12.55
0;586.43823;12.61;586.43823_12.61
0;612.5929;12.64;612.5929_12.64
0;830.56793;12.65;830.56793_12.65
0;476.44626;12.69;476.44626_12.69
0;807.52783;12.7;807.52783_12.7
0;368.38818;12.72;368.38818_12.72
0;612.59283;12.72;612.59283_12.72
0;586.4826;12.73;586.4826_12.73
0;625.38013;12.73;625.38013_12.73
0;680.6546;12.73;680.6546_12.73
0;768.55231;12.76;768.55231_12.76
0;647.42194;12.78;647.42194_12.78
0;625.38214;12.81;625.38214_12.81
0;744.55188;12.84;744.55188_12.84
0;706.53632;12.85;706.53632_12.85
0;523.8634;12.86;523.8634_12.86
0;804.55194;12.87;804.55194_12.87
0;559.48602;12.93;559.48602_12.93
0;925.01746;12.93;925.01746_12.93
0;764.52234;12.95;764.52234_12.95
0;701.42999;12.98;701.42999_12.98
0;589.55542;13.03;589.55542_13.03
0;466.77496;13.06;466.77496_13.06
0;563.40692;13.07;563.40692_13.07
0;586.48254;13.07;586.48254_13.07
0;823.87122;13.07;823.87122_13.07
0;900.51514;13.07;900.51514_13.07
0;579.3797;13.08;579.3797_13.08
0;832.58392;13.08;832.58392_13.08
0;792.55157;13.14;792.55157_13.14
0;431.38776;13.15;431.38776_13.15
0;389.20868;13.17;389.20868_13.17
0;780.55115;13.18;780.55115_13.18
0;684.20233;13.2;684.20233_13.2
0;596.48859;13.23;596.48859_13.23
0;467.74197;13.24;467.74197_13.24
0;808.58411;13.24;808.58411_13.24
0;830.56677;13.25;830.56677_13.25
0;592.37817;13.26;592.37817_13.26
0;785.58887;13.27;785.58887_13.27
0;568.57751;13.28;568.57751_13.28
0;790.57288;13.28;790.57288_13.28
0;369.35107;13.3;369.35107_13.3
0;496.29837;13.31;496.29837_13.31
0;537.26617;13.31;537.26617_13.31
0;746.57013;13.33;746.57013_13.33
0;830.56677;13.33;830.56677_13.33
0;608.52332;13.34;608.52332_13.34
0;548.46704;13.37;548.46704_13.37
0;577.48041;13.39;577.48041_13.39
0;806.56665;13.39;806.56665_13.39
0;652.55072;13.41;652.55072_13.41
0;396.41885;13.43;396.41885_13.43
0;810.60126;13.45;810.60126_13.45
0;818.60541;13.58;818.60541_13.58
0;592.52802;13.6;592.52802_13.6
0;736.54346;13.61;736.54346_13.61
0;768.58887;13.61;768.58887_13.61
0;685.43549;13.62;685.43549_13.62
0;701.40845;13.62;701.40845_13.62
0;722.52753;13.62;722.52753_13.62
0;449.30505;13.65;449.30505_13.65
0;367.22635;13.69;367.22635_13.69
0;760.58337;13.73;760.58337_13.73
0;794.60394;13.73;794.60394_13.73
0;856.58087;13.73;856.58087_13.73
0;744.58911;13.74;744.58911_13.74
0;758.22076;13.91;758.22076_13.91
0;932.05701;13.91;932.05701_13.91
0;703.20947;13.93;703.20947_13.93
0;715.6571;13.95;715.6571_13.95
0;797.59167;14.02;797.59167_14.02
0;708.68542;14.05;708.68542_14.05
0;836.61481;14.06;836.61481_14.06
0;559.54156;14.12;559.54156_14.12
0;834.59839;14.33;834.59839_14.33
0;927.18225;14.41;927.18225_14.41
0;500.46719;14.43;500.46719_14.43
0;515.33154;14.5;515.33154_14.5
0;741.70825;14.5;741.70825_14.5
0;727.65784;14.57;727.65784_14.57
0;832.23944;14.79;832.23944_14.79
0;1051.79846;15.13;1051.79846_15.13
0;669.43903;15.36;669.43903_15.36
0;165.05998;15.37;165.05998_15.37
0;217.07457;15.4;217.07457_15.4
0;249.09982;15.4;249.09982_15.4
0;792.77777;15.4;792.77777_15.4
0;445.17654;15.41;445.17654_15.41
0;140.95235;15.42;140.95235_15.42
0;270.9101;15.42;270.9101_15.42
0;405.14264;15.42;405.14264_15.42
0;509.35034;15.45;509.35034_15.45
0;628.75476;15.45;628.75476_15.45
0;224.96559;15.47;224.96559_15.47
0;537.88019;15.49;537.88019_15.49
0;156.95284;15.5;156.95284_15.5
0;552.32898;15.5;552.32898_15.5
0;122.92947;15.51;122.92947_15.51
0;291.8468;15.51;291.8468_15.51
0;284.89154;15.52;284.89154_15.52
0;182.02321;15.53;182.02321_15.53
0;149.99762;15.54;149.99762_15.54
0;168.00758;15.54;168.00758_15.54
0;294.91998;15.55;294.91998_15.55
1;654.71442;0.5;654.71442_0.5
1;370.74069;0.51;370.74069_0.51
1;372.7373;0.51;372.7373_0.51
1;374.73462;0.51;374.73462_0.51
1;376.7316;0.51;376.7316_0.51
1;428.69916;0.51;428.69916_0.51
1;430.6962;0.51;430.6962_0.51
1;432.69318;0.51;432.69318_0.51
1;434.69022;0.51;434.69022_0.51
1;436.68729;0.51;436.68729_0.51
1;488.65472;0.51;488.65472_0.51
1;490.65179;0.51;490.65179_0.51
1;492.64874;0.51;492.64874_0.51
1;494.64499;0.51;494.64499_0.51
1;548.61035;0.51;548.61035_0.51
1;550.60742;0.51;550.60742_0.51
1;552.60443;0.51;552.60443_0.51
1;606.56885;0.51;606.56885_0.51
1;608.56598;0.51;608.56598_0.51
1;610.56293;0.51;610.56293_0.51
2;598.75403;0.49;598.75403_0.49
2;724.70093;0.49;724.70093_0.49
2;530.76672;0.5;530.76672_0.5
2;584.73114;0.5;584.73114_0.5
2;646.68445;0.5;646.68445_0.5
2;656.71338;0.5;656.71338_0.5
2;378.72882;0.51;378.72882_0.51
2;486.6575;0.51;486.6575_0.51
2;544.61633;0.51;544.61633_0.51
2;546.61353;0.51;546.61353_0.51
2;602.57483;0.51;602.57483_0.51
2;604.57135;0.51;604.57135_0.51
2;612.55939;0.51;612.55939_0.51
2;662.52985;0.51;662.52985_0.51
2;664.52692;0.51;664.52692_0.51
2;666.52454;0.51;666.52454_0.51
2;668.52148;0.51;668.52148_0.51
2;778.44733;0.51;778.44733_0.51
2;780.44409;0.51;780.44409_0.51
2;786.43506;0.51;786.43506_0.51
3;270.79758;0.51;270.79758_0.51
3;272.79504;0.51;272.79504_0.51
3;274.79108;0.51;274.79108_0.51
3;276.78937;0.51;276.78937_0.51
3;328.75705;0.51;328.75705_0.51
3;330.75348;0.51;330.75348_0.51
3;332.75076;0.51;332.75076_0.51
3;334.74814;0.51;334.74814_0.51
3;386.71304;0.51;386.71304_0.51
3;388.71155;0.51;388.71155_0.51
3;390.70731;0.51;390.70731_0.51
3;392.70404;0.51;392.70404_0.51
3;444.67303;0.51;444.67303_0.51
3;446.67175;0.51;446.67175_0.51
3;448.66626;0.51;448.66626_0.51
3;450.66507;0.51;450.66507_0.51
3;680.50159;0.51;680.50159_0.51
3;684.4942;0.51;684.4942_0.51
3;820.37946;0.51;820.37946_0.51
4;394.70291;0.5;394.70291_0.5
4;476.75827;0.5;476.75827_0.5
4;478.75519;0.5;478.75519_0.5
4;534.71552;0.5;534.71552_0.5
4;542.74756;0.5;542.74756_0.5
4;546.74152;0.5;546.74152_0.5
4;602.70172;0.5;602.70172_0.5
4;604.69904;0.5;604.69904_0.5
4;670.68842;0.5;670.68842_0.5
4;728.64569;0.5;728.64569_0.5
4;560.58972;0.51;560.58972_0.51
4;678.50372;0.51;678.50372_0.51
4;794.42023;0.51;794.42023_0.51
4;796.41846;0.51;796.41846_0.51
4;798.41479;0.51;798.41479_0.51
4;800.41144;0.51;800.41144_0.51
4;802.40851;0.51;802.40851_0.51
4;804.40656;0.51;804.40656_0.51
5;684.84186;0.48;684.84186_0.48
5;174.93782;0.49;174.93782_0.49
5;242.92447;0.49;242.92447_0.49
5;244.92201;0.49;244.92201_0.49
5;310.91269;0.49;310.91269_0.49
5;378.90094;0.49;378.90094_0.49
5;446.88864;0.49;446.88864_0.49
5;448.88419;0.49;448.88419_0.49
5;616.85455;0.49;616.85455_0.49
5;658.83551;0.49;658.83551_0.49
5;726.82385;0.49;726.82385_0.49
5;752.82971;0.49;752.82971_0.49
5;794.80981;0.49;794.80981_0.49
5;820.81683;0.49;820.81683_0.49
5;862.79663;0.49;862.79663_0.49
5;930.78461;0.49;930.78461_0.49
5;1074.74731;0.49;1074.74731_0.49
6;744.84283;0.48;744.84283_0.48
6;120.3268;0.49;120.3268_0.49
6;567.89062;0.49;567.89062_0.49
6;636.87885;0.49;636.87885_0.49
6;704.86566;0.49;704.86566_0.49
6;772.85498;0.49;772.85498_0.49
6;812.82977;0.49;812.82977_0.49
6;840.84222;0.49;840.84222_0.49
6;846.82288;0.49;846.82288_0.49
6;880.81635;0.49;880.81635_0.49
6;914.80975;0.49;914.80975_0.49
6;917.47546;0.49;917.47546_0.49
6;940.13647;0.49;940.13647_0.49
6;982.79797;0.49;982.79797_0.49
6;336.01447;0.5;336.01447_0.5
6;255.97755;0.51;255.97755_0.51
7;520.60303;0.51;520.60303_0.51
7;522.59979;0.51;522.59979_0.51
7;524.59668;0.51;524.59668_0.51
7;526.5946;0.51;526.5946_0.51
7;578.56104;0.51;578.56104_0.51
7;580.55841;0.51;580.55841_0.51
7;582.55566;0.51;582.55566_0.51
7;584.55292;0.51;584.55292_0.51
7;636.51923;0.51;636.51923_0.51
7;638.51599;0.51;638.51599_0.51
7;640.51483;0.51;640.51483_0.51
7;642.51178;0.51;642.51178_0.51
7;694.47876;0.51;694.47876_0.51
7;696.47485;0.51;696.47485_0.51
7;698.47217;0.51;698.47217_0.51
7;700.46899;0.51;700.46899_0.51
8;252.86528;0.49;252.86528_0.49
8;378.80771;0.49;378.80771_0.49
8;386.84113;0.49;386.84113_0.49
8;454.82812;0.49;454.82812_0.49
8;520.81915;0.49;520.81915_0.49
8;522.81671;0.49;522.81671_0.49
8;588.8075;0.49;588.8075_0.49
8;590.80408;0.49;590.80408_0.49
8;638.73395;0.49;638.73395_0.49
8;658.79211;0.49;658.79211_0.49
8;726.78021;0.49;726.78021_0.49
8;248.87067;0.5;248.87067_0.5
8;250.86736;0.5;250.86736_0.5
8;384.84659;0.5;384.84659_0.5
8;452.83386;0.5;452.83386_0.5
9;148.93491;0.49;148.93491_0.49
9;354.89392;0.49;354.89392_0.49
9;422.88077;0.49;422.88077_0.49
9;488.87137;0.49;488.87137_0.49
9;490.86838;0.49;490.86838_0.49
9;604.78906;0.49;604.78906_0.49
9;606.78534;0.49;606.78534_0.49
9;197.10088;0.5;197.10088_0.5
9;208.89076;0.5;208.89076_0.5
9;216.92252;0.5;216.92252_0.5
9;218.91956;0.5;218.91956_0.5
9;219.08253;0.5;219.08253_0.5
9;284.90942;0.5;284.90942_0.5
9;352.897;0.5;352.897_0.5
9;420.88406;0.5;420.88406_0.5
10;452.66321;0.51;452.66321_0.51
10;502.63132;0.51;502.63132_0.51
10;504.62854;0.51;504.62854_0.51
10;506.62595;0.51;506.62595_0.51
10;508.62274;0.51;508.62274_0.51
10;510.61972;0.51;510.61972_0.51
10;562.58722;0.51;562.58722_0.51
10;564.58423;0.51;564.58423_0.51
10;566.5813;0.51;566.5813_0.51
10;568.57843;0.51;568.57843_0.51
10;620.5462;0.51;620.5462_0.51
10;622.54266;0.51;622.54266_0.51
10;624.53955;0.51;624.53955_0.51
10;626.53693;0.51;626.53693_0.51
10;682.49756;0.51;682.49756_0.51
11;302.74515;0.51;302.74515_0.51
11;304.7413;0.51;304.7413_0.51
11;306.73843;0.51;306.73843_0.51
11;360.7034;0.51;360.7034_0.51
11;364.69711;0.51;364.69711_0.51
11;418.66101;0.51;418.66101_0.51
11;482.61249;0.51;482.61249_0.51
11;496.58905;0.51;496.58905_0.51
11;536.57684;0.51;536.57684_0.51
11;594.53528;0.51;594.53528_0.51
11;600.52704;0.51;600.52704_0.51
11;612.50629;0.51;612.50629_0.51
11;712.44812;0.51;712.44812_0.51
11;714.44708;0.51;714.44708_0.51
11;848.33411;0.51;848.33411_0.51
12;516.74384;0.5;516.74384_0.5
12;138.90614;0.51;138.90614_0.51
12;140.90335;0.51;140.90335_0.51
12;142.90027;0.51;142.90027_0.51
12;196.86494;0.51;196.86494_0.51
12;198.86197;0.51;198.86197_0.51
12;200.85899;0.51;200.85899_0.51
12;254.82344;0.51;254.82344_0.51
12;256.8204;0.51;256.8204_0.51
12;258.81747;0.51;258.81747_0.51
12;260.81445;0.51;260.81445_0.51
12;312.78198;0.51;312.78198_0.51
12;314.77884;0.51;314.77884_0.51
12;316.77603;0.51;316.77603_0.51
13;386.76022;0.5;386.76022_0.5
13;438.72809;0.5;438.72809_0.5
13;440.72513;0.5;440.72513_0.5
13;442.72189;0.5;442.72189_0.5
13;444.71909;0.5;444.71909_0.5
13;448.75674;0.5;448.75674_0.5
13;498.68347;0.5;498.68347_0.5
13;500.68048;0.5;500.68048_0.5
13;556.64197;0.5;556.64197_0.5
13;558.63922;0.5;558.63922_0.5
13;566.6712;0.5;566.6712_0.5
13;568.66797;0.5;568.66797_0.5
13;714.67065;0.5;714.67065_0.5
13;782.65869;0.5;782.65869_0.5
14;634.87543;0.48;634.87543_0.48
14;702.86255;0.48;702.86255_0.48
14;710.84991;0.48;710.84991_0.48
14;770.84979;0.48;770.84979_0.48
14;778.83575;0.48;778.83575_0.48
14;838.8363;0.48;838.8363_0.48
14;158.96384;0.49;158.96384_0.49
14;226.95131;0.49;226.95131_0.49
14;362.92578;0.49;362.92578_0.49
14;430.91327;0.49;430.91327_0.49
14;498.90009;0.49;498.90009_0.49
14;566.88806;0.49;566.88806_0.49
14;294.93765;0.51;294.93765_0.51
15;122.92467;0.49;122.92467_0.49
15;190.91197;0.49;190.91197_0.49
15;258.89801;0.49;258.89801_0.49
15;274.87262;0.49;274.87262_0.49
15;326.88669;0.49;326.88669_0.49
15;328.88547;0.49;328.88547_0.49
15;394.87329;0.49;394.87329_0.49
15;396.87125;0.49;396.87125_0.49
15;462.85944;0.49;462.85944_0.49
15;464.85858;0.49;464.85858_0.49
15;124.92273;0.5;124.92273_0.5
15;260.89639;0.5;260.89639_0.5
16;536.80194;0.49;536.80194_0.49
16;538.79889;0.49;538.79889_0.49
16;210.88774;0.5;210.88774_0.5
16;322.81085;0.5;322.81085_0.5
16;324.80792;0.5;324.80792_0.5
16;326.80481;0.5;326.80481_0.5
16;334.83655;0.5;334.83655_0.5
16;380.76935;0.5;380.76935_0.5
16;382.76636;0.5;382.76636_0.5
16;384.76337;0.5;384.76337_0.5
16;392.79492;0.5;392.79492_0.5
16;470.81165;0.5;470.81165_0.5
17;388.85632;0.47;388.85632_0.47
17;570.82666;0.47;570.82666_0.47
17;638.8136;0.47;638.8136_0.47
17;320.86948;0.48;320.86948_0.48
17;456.84381;0.48;456.84381_0.48
17;524.8313;0.48;524.8313_0.48
17;592.81842;0.48;592.81842_0.48
17;660.80536;0.48;660.80536_0.48
17;728.79248;0.48;728.79248_0.48
17;796.77948;0.48;796.77948_0.48
17;864.76721;0.48;864.76721_0.48
18;147.11295;0.47;147.11295_0.47
18;337.90463;0.52;337.90463_0.52
18;142.04736;0.53;142.04736_0.53
18;164.02919;0.53;164.02919_0.53
18;189.13457;0.53;189.13457_0.53
18;279.94589;0.53;279.94589_0.53
18;281.9433;0.53;281.9433_0.53
18;339.9025;0.53;339.9025_0.53
18;344.09213;0.53;344.09213_0.53
18;402.05069;0.53;402.05069_0.53
18;120.06557;0.54;120.06557_0.54
19;478.83463;0.49;478.83463_0.49
19;530.84821;0.49;530.84821_0.49
19;598.83582;0.49;598.83582_0.49
19;666.82288;0.49;666.82288_0.49
19;734.81006;0.49;734.81006_0.49
19;750.78387;0.49;750.78387_0.49
19;532.84637;0.5;532.84637_0.5
19;600.8338;0.5;600.8338_0.5
19;632.82916;0.5;632.82916_0.5
19;742.79669;0.5;742.79669_0.5
20;177.06096;0.48;177.06096_0.48
20;191.07643;0.48;191.07643_0.48
20;245.04807;0.48;245.04807_0.48
20;259.06387;0.48;259.06387_0.48
20;313.03561;0.48;313.03561_0.48
20;327.05118;0.48;327.05118_0.48
20;395.0386;0.48;395.0386_0.48
20;463.02563;0.48;463.02563_0.48
20;531.01318;0.48;531.01318_0.48
20;599.00024;0.48;599.00024_0.48
21;248.90036;0.45;248.90036_0.45
21;230.89006;0.46;230.89006_0.46
21;230.9671;0.46;230.9671_0.46
21;232.99834;0.46;232.99834_0.46
21;236.95787;0.46;236.95787_0.46
21;248.97694;0.46;248.97694_0.46
21;254.93054;0.46;254.93054_0.46
21;461.80176;0.46;461.80176_0.46
21;220.98038;0.47;220.98038_0.47
21;219.98463;0.5;219.98463_0.5
22;806.66187;0.49;806.66187_0.49
22;352.80777;0.5;352.80777_0.5
22;474.76028;0.5;474.76028_0.5
22;524.68671;0.5;524.68671_0.5
22;526.68378;0.5;526.68378_0.5
22;532.71844;0.5;532.71844_0.5
22;536.71301;0.5;536.71301_0.5
22;592.67438;0.5;592.67438_0.5
22;594.67041;0.5;594.67041_0.5
22;610.73444;0.5;610.73444_0.5
23;222.86656;0.5;222.86656_0.5
23;224.86481;0.5;224.86481_0.5
23;280.8251;0.5;280.8251_0.5
23;282.82227;0.5;282.82227_0.5
23;284.81903;0.5;284.81903_0.5
23;340.78098;0.5;340.78098_0.5
23;348.81339;0.5;348.81339_0.5
23;350.81161;0.5;350.81161_0.5
23;416.80029;0.5;416.80029_0.5
23;418.79941;0.5;418.79941_0.5
24;316.85699;0.49;316.85699_0.49
24;238.84015;0.5;238.84015_0.5
24;240.83768;0.5;240.83768_0.5
24;242.83522;0.5;242.83522_0.5
24;306.82758;0.5;306.82758_0.5
24;364.78671;0.5;364.78671_0.5
24;374.81436;0.5;374.81436_0.5
24;376.81335;0.5;376.81335_0.5
24;444.79883;0.5;444.79883_0.5
24;492.73077;0.5;492.73077_0.5
25;600.88171;0.48;600.88171_0.48
25;668.86847;0.48;668.86847_0.48
25;736.85553;0.48;736.85553_0.48
25;804.84308;0.48;804.84308_0.48
25;872.82947;0.48;872.82947_0.48
25;906.82404;0.48;906.82404_0.48
25;974.81067;0.48;974.81067_0.48
25;1008.12347;0.49;1008.12347_0.49
25;1042.79846;0.49;1042.79846_0.49
26;304.89478;0.48;304.89478_0.48
26;372.88211;0.48;372.88211_0.48
26;440.86902;0.48;440.86902_0.48
26;508.85626;0.48;508.85626_0.48
26;576.84326;0.48;576.84326_0.48
26;644.83032;0.48;644.83032_0.48
26;712.81714;0.48;712.81714_0.48
26;780.80414;0.48;780.80414_0.48
26;848.79126;0.48;848.79126_0.48
27;282.90469;0.47;282.90469_0.47
27;350.89108;0.47;350.89108_0.47
27;418.87814;0.47;418.87814_0.47
27;486.86542;0.47;486.86542_0.47
27;554.85254;0.47;554.85254_0.47
27;622.83966;0.47;622.83966_0.47
27;690.82635;0.47;690.82635_0.47
27;758.8139;0.47;758.8139_0.47
27;826.79962;0.47;826.79962_0.47
28;253.9095;0.47;253.9095_0.47
28;556.8587;0.49;556.8587_0.49
28;558.85559;0.49;558.85559_0.49
28;626.84344;0.49;626.84344_0.49
28;637.84735;0.49;637.84735_0.49
28;694.83075;0.49;694.83075_0.49
28;762.81665;0.49;762.81665_0.49
28;830.80542;0.49;830.80542_0.49
28;807.815;0.51;807.815_0.51
29;286.77112;0.51;286.77112_0.51
29;288.76904;0.51;288.76904_0.51
29;290.7645;0.51;290.7645_0.51
29;292.76184;0.51;292.76184_0.51
29;344.73083;0.51;344.73083_0.51
29;346.72797;0.51;346.72797_0.51
29;348.72363;0.51;348.72363_0.51
29;350.72076;0.51;350.72076_0.51
29;518.60571;0.51;518.60571_0.51
30;402.68839;0.51;402.68839_0.51
30;404.68427;0.51;404.68427_0.51
30;406.68365;0.51;406.68365_0.51
30;408.67892;0.51;408.67892_0.51
30;460.64603;0.51;460.64603_0.51
30;462.64432;0.51;462.64432_0.51
30;464.64212;0.51;464.64212_0.51
30;466.63974;0.51;466.63974_0.51
30;468.63428;0.51;468.63428_0.51
31;700.81708;0.49;700.81708_0.49
31;768.80286;0.49;768.80286_0.49
31;802.79706;0.49;802.79706_0.49
31;836.78949;0.49;836.78949_0.49
31;870.78455;0.49;870.78455_0.49
31;904.77911;0.49;904.77911_0.49
31;938.77142;0.49;938.77142_0.49
31;878.77185;0.5;878.77185_0.5
32;456.69598;0.5;456.69598_0.5
32;460.69312;0.5;460.69312_0.5
32;514.65735;0.5;514.65735_0.5
32;516.65503;0.5;516.65503_0.5
32;518.65198;0.5;518.65198_0.5
32;572.61578;0.5;572.61578_0.5
32;574.6134;0.5;574.6134_0.5
32;632.57135;0.5;632.57135_0.5
33;219.89714;0.45;219.89714_0.45
33;237.9077;0.45;237.9077_0.45
33;247.89301;0.45;247.89301_0.45
33;251.9239;0.45;251.9239_0.45
33;265.90222;0.45;265.90222_0.45
33;279.91815;0.45;279.91815_0.45
33;293.89798;0.45;293.89798_0.45
33;261.9071;0.46;261.9071_0.46
34;204.95695;0.47;204.95695_0.47
34;340.93082;0.47;340.93082_0.47
34;408.91788;0.47;408.91788_0.47
34;476.90509;0.47;476.90509_0.47
34;272.94354;0.48;272.94354_0.48
34;544.89191;0.48;544.89191_0.48
34;612.87939;0.48;612.87939_0.48
34;680.86597;0.48;680.86597_0.48
35;492.88235;0.48;492.88235_0.48
35;560.86932;0.48;560.86932_0.48
35;605.85852;0.48;605.85852_0.48
35;628.85626;0.48;628.85626_0.48
35;696.84326;0.48;696.84326_0.48
35;764.82971;0.48;764.82971_0.48
35;832.81763;0.48;832.81763_0.48
35;900.80444;0.48;900.80444_0.48
36;608.78333;0.49;608.78333_0.49
36;672.77551;0.49;672.77551_0.49
36;676.77026;0.49;676.77026_0.49
36;901.81006;0.49;901.81006_0.49
36;206.89368;0.5;206.89368_0.5
36;635.54791;0.5;635.54791_0.5
36;896.36096;0.51;896.36096_0.51
36;962.30725;0.51;962.30725_0.51
37;394.79214;0.5;394.79214_0.5
37;452.75076;0.5;452.75076_0.5
37;510.70938;0.5;510.70938_0.5
37;518.74121;0.5;518.74121_0.5
37;526.77344;0.5;526.77344_0.5
37;576.69971;0.5;576.69971_0.5
37;578.69666;0.5;578.69666_0.5
37;588.7254;0.5;588.7254_0.5
38;263.87436;0.25;263.87436_0.25
38;278.88699;0.25;278.88699_0.25
38;282.88354;0.25;282.88354_0.25
38;150.96893;0.26;150.96893_0.26
38;164.9483;0.26;164.9483_0.26
38;284.88358;0.26;284.88358_0.26
38;296.8992;0.26;296.8992_0.26
38;205.0162;0.27;205.0162_0.27
39;370.86786;0.49;370.86786_0.49
39;438.85455;0.49;438.85455_0.49
39;756.73425;0.49;756.73425_0.49
39;234.8929;0.5;234.8929_0.5
39;300.88458;0.5;300.88458_0.5
39;368.87122;0.5;368.87122_0.5
39;504.84451;0.5;504.84451_0.5
39;232.89636;0.51;232.89636_0.51
40;612.73145;0.49;612.73145_0.49
40;620.76196;0.49;620.76196_0.49
40;680.71722;0.49;680.71722_0.49
40;688.75049;0.49;688.75049_0.49
40;690.74457;0.49;690.74457_0.49
40;360.84058;0.5;360.84058_0.5
40;484.78793;0.5;484.78793_0.5
40;554.77216;0.5;554.77216_0.5
41;636.73627;0.49;636.73627_0.49
41;704.72345;0.49;704.72345_0.49
41;706.72119;0.49;706.72119_0.49
41;480.70337;0.5;480.70337_0.5
41;550.68921;0.5;550.68921_0.5
41;608.64758;0.5;608.64758_0.5
41;618.67725;0.5;618.67725_0.5
41;154.87976;0.51;154.87976_0.51
42;238.98195;15.47;238.98195_15.47
42;168.98016;15.49;168.98016_15.49
42;127.03509;15.5;127.03509_15.5
42;153.0704;15.5;153.0704_15.5
42;154.95615;15.5;154.95615_15.5
42;139.05428;15.51;139.05428_15.51
42;166.98517;15.52;166.98517_15.52
42;125.03903;15.54;125.03903_15.54
43;746.56226;10.64;746.56226_10.64
43;394.35287;10.66;394.35287_10.66
43;570.4577;10.67;570.4577_10.67
43;614.4837;10.67;614.4837_10.67
43;658.50964;10.67;658.50964_10.67
43;702.53577;10.68;702.53577_10.68
43;496.42114;10.92;496.42114_10.92
43;540.44714;10.92;540.44714_10.92
44;645.57953;13.25;645.57953_13.25
44;573.28717;13.32;573.28717_13.32
44;583.30939;13.32;583.30939_13.32
44;597.32489;13.33;597.32489_13.33
44;655.33002;13.33;655.33002_13.33
44;567.31226;13.34;567.31226_13.34
44;667.33075;13.34;667.33075_13.34
44;685.61139;13.48;685.61139_13.48
45;972.76465;0.49;972.76465_0.49
45;1006.75732;0.49;1006.75732_0.49
45;668.82025;0.5;668.82025_0.5
45;736.80841;0.5;736.80841_0.5
45;804.79675;0.5;804.79675_0.5
45;810.78473;0.5;810.78473_0.5
45;872.78552;0.5;872.78552_0.5
46;244.78687;0.5;244.78687_0.5
46;246.78288;0.5;246.78288_0.5
46;366.6958;0.5;366.6958_0.5
46;308.73669;0.51;308.73669_0.51
46;362.7002;0.51;362.7002_0.51
46;424.65076;0.51;424.65076_0.51
46;476.61923;0.51;476.61923_0.51
47;160.05994;0.6;160.05994_0.6
47;185.58549;0.6;185.58549_0.6
47;189.08646;0.6;189.08646_0.6
47;247.09158;0.6;247.09158_0.6
47;293.09705;0.6;293.09705_0.6
47;177.08659;0.61;177.08659_0.61
47;235.09177;0.61;235.09177_0.61
48;348.86676;0.45;348.86676_0.45
48;349.85342;0.45;349.85342_0.45
48;371.89011;0.45;371.89011_0.45
48;214.91695;0.46;214.91695_0.46
48;232.92744;0.46;232.92744_0.46
48;236.92018;0.46;236.92018_0.46
48;250.93782;0.46;250.93782_0.46
49;148.00383;0.52;148.00383_0.52
49;285.90295;0.52;285.90295_0.52
49;345.85855;0.52;345.85855_0.52
49;126.02206;0.53;126.02206_0.53
49;350.04898;0.53;350.04898_0.53
49;408.0076;0.53;408.0076_0.53
49;148.06012;0.54;148.06012_0.54
50;494.84146;0.53;494.84146_0.53
50;496.83878;0.53;496.83878_0.53
50;261.01105;0.54;261.01105_0.54
50;263.00815;0.54;263.00815_0.54
50;318.96921;0.54;318.96921_0.54
50;320.9657;0.54;320.9657_0.54
50;616.94623;0.54;616.94623_0.54
51;420.65857;0.51;420.65857_0.51
51;422.65805;0.51;422.65805_0.51
51;478.61566;0.51;478.61566_0.51
51;480.61307;0.51;480.61307_0.51
51;538.57416;0.51;538.57416_0.51
51;540.57104;0.51;540.57104_0.51
51;596.53229;0.51;596.53229_0.51
52;598.52972;0.51;598.52972_0.51
52;654.49084;0.51;654.49084_0.51
52;656.48688;0.51;656.48688_0.51
52;828.36572;0.51;828.36572_0.51
52;830.3631;0.51;830.3631_0.51
52;832.35974;0.51;832.35974_0.51
52;834.3573;0.51;834.3573_0.51
53;500.76257;0.49;500.76257_0.49
53;502.75952;0.49;502.75952_0.49
53;558.7218;0.49;558.7218_0.49
53;570.74725;0.49;570.74725_0.49
53;368.78171;0.5;368.78171_0.5
53;436.76733;0.5;436.76733_0.5
53;560.71808;0.5;560.71808_0.5
54;144.08075;2.94;144.08075_2.94
54;146.05975;2.94;146.05975_2.94
54;159.09142;2.94;159.09142_2.94
54;188.07065;2.94;188.07065_2.94
54;205.09752;2.94;205.09752_2.94
54;409.18698;2.94;409.18698_2.94
54;132.08066;2.95;132.08066_2.95
55;317.24753;8.98;317.24753_8.98
55;156.49344;9.04;156.49344_9.04
55;337.21375;9.05;337.21375_9.05
55;315.23209;9.06;315.23209_9.06
55;374.30533;9.06;374.30533_9.06
55;157.54839;9.07;157.54839_9.07
55;137.53394;9.09;137.53394_9.09
56;524.37067;10.92;524.37067_10.92
56;546.35303;10.92;546.35303_10.92
56;547.35596;10.92;547.35596_10.92
56;808.03387;10.92;808.03387_10.92
56;1069.71631;10.92;1069.71631_10.92
56;808.53314;10.93;808.53314_10.93
56;1071.72266;10.93;1071.72266_10.93
57;548.2746;10.28;548.2746_10.28
57;300.63464;10.29;300.63464_10.29
57;526.2923;10.29;526.2923_10.29
57;544.33954;10.29;544.33954_10.29
57;1069.62439;10.29;1069.62439_10.29
57;1087.6709;10.29;1087.6709_10.29
57;1045.62378;10.3;1045.62378_10.3
58;338.34091;11.66;338.34091_11.66
58;360.32404;11.66;360.32404_11.66
58;675.6748;11.67;675.6748_11.67
58;121.84192;11.68;121.84192_11.68
58;135.89241;11.68;135.89241_11.68
58;136.6611;11.68;136.6611_11.68
58;697.65771;11.68;697.65771_11.68
59;489.46686;11.43;489.46686_11.43
59;511.47244;11.56;511.47244_11.56
59;466.24857;11.6;466.24857_11.6
59;629.51202;11.6;629.51202_11.6
59;697.33887;11.6;697.33887_11.6
59;557.49207;11.61;557.49207_11.61
59;463.45041;11.78;463.45041_11.78
60;514.87433;0.49;514.87433_0.49
60;582.86133;0.49;582.86133_0.49
60;584.86255;0.49;584.86255_0.49
60;650.84845;0.49;650.84845_0.49
60;718.83557;0.49;718.83557_0.49
60;720.836;0.5;720.836_0.5
61;546.82196;0.49;546.82196_0.49
61;614.8092;0.49;614.8092_0.49
61;682.79626;0.49;682.79626_0.49
61;818.77118;0.49;818.77118_0.49
61;410.84726;0.5;410.84726_0.5
61;480.83264;0.5;480.83264_0.5
62;243.0275;0.72;243.0275_0.72
62;247.99762;0.72;247.99762_0.72
62;217.9873;0.73;217.9873_0.73
62;244.99796;0.73;244.99796_0.73
62;262.01337;0.73;262.01337_0.73
62;245.9821;0.74;245.9821_0.74
63;506.84186;0.49;506.84186_0.49
63;572.83148;0.49;572.83148_0.49
63;574.82941;0.49;574.82941_0.49
63;642.81586;0.49;642.81586_0.49
63;710.80524;0.49;710.80524_0.49
63;436.85724;0.5;436.85724_0.5
64;219.02551;0.54;219.02551_0.54
64;276.98538;0.54;276.98538_0.54
64;278.98111;0.54;278.98111_0.54
64;334.94324;0.54;334.94324_0.54
64;336.93991;0.54;336.93991_0.54
64;515.00592;0.54;515.00592_0.54
65;445.82346;0.45;445.82346_0.45
65;216.94992;0.46;216.94992_0.46
65;218.94746;0.46;218.94746_0.46
65;218.98283;0.46;218.98283_0.46
65;234.96031;0.46;234.96031_0.46
65;346.90723;0.46;346.90723_0.46
66;137.04567;0.7;137.04567_0.7
66;254.12454;0.7;254.12454_0.7
66;268.14014;0.7;268.14014_0.7
66;286.09628;0.7;286.09628_0.7
66;318.11911;0.7;318.11911_0.7
66;137.04587;1.03;137.04587_1.03
67;268.84613;0.5;268.84613_0.5
67;390.79813;0.5;390.79813_0.5
67;450.75381;0.5;450.75381_0.5
67;458.78537;0.5;458.78537_0.5
67;460.78238;0.5;460.78238_0.5
67;468.81439;0.5;468.81439_0.5
68;191.03989;0.52;191.03989_0.52
68;250.99538;0.52;250.99538_0.52
68;130.05022;0.53;130.05022_0.53
68;147.07617;0.53;147.07617_0.53
68;151.04782;0.53;151.04782_0.53
68;169.0585;0.53;169.0585_0.53
69;344.87418;0.46;344.87418_0.46
69;362.88455;0.46;362.88455_0.46
69;458.85391;0.46;458.85391_0.46
69;474.83154;0.46;474.83154_0.46
69;366.87735;0.47;366.87735_0.47
69;930.18823;0.6;930.18823_0.6
70;296.79929;0.5;296.79929_0.5
70;298.79782;0.5;298.79782_0.5
70;354.75937;0.5;354.75937_0.5
70;356.75443;0.5;356.75443_0.5
70;358.75381;0.5;358.75381_0.5
70;424.74338;0.5;424.74338_0.5
71;414.71301;0.5;414.71301_0.5
71;416.71066;0.5;416.71066_0.5
71;472.67331;0.5;472.67331_0.5
71;474.66779;0.5;474.66779_0.5
71;476.66516;0.5;476.66516_0.5
71;588.59033;0.5;588.59033_0.5
72;177.00708;0.48;177.00708_0.48
72;200.04428;0.5;200.04428_0.5
72;290.07565;0.54;290.07565_0.54
72;265.02298;0.56;265.02298_0.56
72;249.02798;0.6;249.02798_0.6
72;205.02423;0.71;205.02423_0.71
73;120.98056;0.46;120.98056_0.46
73;134.99649;0.46;134.99649_0.46
73;137.02974;0.46;137.02974_0.46
73;149.01149;0.46;149.01149_0.46
73;246.94441;0.46;246.94441_0.46
73;138.99113;0.47;138.99113_0.47
74;414.30078;9.26;414.30078_9.26
74;432.31146;9.26;432.31146_9.26
74;450.32193;9.26;450.32193_9.26
74;472.30386;9.26;472.30386_9.26
74;899.63629;9.26;899.63629_9.26
74;506.24118;9.27;506.24118_9.27
75;358.07108;7.81;358.07108_7.81
75;241.10696;7.82;241.10696_7.82
75;181.08592;7.83;181.08592_7.83
75;223.09622;7.83;223.09622_7.83
75;255.12265;7.83;255.12265_7.83
75;263.08896;7.83;263.08896_7.83
76;542.32104;10.18;542.32104_10.18
76;479.29617;10.2;479.29617_10.2
76;520.3399;10.31;520.3399_10.31
76;997.62415;10.31;997.62415_10.31
76;478.29153;10.32;478.29153_10.32
76;1019.60736;10.32;1019.60736_10.32
77;888.80475;0.49;888.80475_0.49
77;956.79211;0.49;956.79211_0.49
77;1024.77856;0.49;1024.77856_0.49
77;1032.76587;0.49;1032.76587_0.49
77;1058.77161;0.49;1058.77161_0.49
78;412.71771;0.5;412.71771_0.5
78;470.67697;0.5;470.67697_0.5
78;530.6322;0.5;530.6322_0.5
78;532.62878;0.5;532.62878_0.5
78;590.58685;0.5;590.58685_0.5
79;207.01338;0.52;207.01338_0.52
79;264.97348;0.52;264.97348_0.52
79;209.01231;0.53;209.01231_0.53
79;324.92996;0.53;324.92996_0.53
79;382.88623;0.53;382.88623_0.53
80;542.56812;0.51;542.56812_0.51
80;652.49274;0.51;652.49274_0.51
80;658.48462;0.51;658.48462_0.51
80;710.45129;0.51;710.45129_0.51
80;716.44305;0.51;716.44305_0.51
81;264.84427;0.5;264.84427_0.5
81;174.8488;0.51;174.8488_0.51
81;670.46417;0.51;670.46417_0.51
81;672.46088;0.51;672.46088_0.51
81;846.3371;0.51;846.3371_0.51
82;775.82568;0.47;775.82568_0.47
82;639.85168;0.48;639.85168_0.48
82;673.84601;0.48;673.84601_0.48
82;707.83801;0.48;707.83801_0.48
82;741.8313;0.48;741.8313_0.48
83;359.83447;0.51;359.83447_0.51
83;185.95995;0.52;185.95995_0.52
83;301.87625;0.52;301.87625_0.52
83;303.87335;0.52;303.87335_0.52
83;361.83176;0.52;361.83176_0.52
84;203.15009;0.59;203.15009_0.59
84;247.09293;0.69;247.09293_0.69
84;245.07678;0.7;245.07678_0.7
84;257.11215;0.7;257.11215_0.7
84;282.11899;0.7;282.11899_0.7
85;624.84601;0.49;624.84601_0.49
85;692.83344;0.49;692.83344_0.49
85;760.8208;0.49;760.8208_0.49
85;828.80481;0.49;828.80481_0.49
85;896.79272;0.49;896.79272_0.49
86;404.82095;0.5;404.82095_0.5
86;462.77942;0.5;462.77942_0.5
86;520.7381;0.5;520.7381_0.5
86;782.44116;0.51;782.44116_0.51
86;784.43805;0.51;784.43805_0.51
87;540.79523;0.49;540.79523_0.49
87;662.74622;0.49;662.74622_0.49
87;666.74237;0.49;666.74237_0.49
87;674.77222;0.49;674.77222_0.49
87;734.72839;0.49;734.72839_0.49
88;248.9984;0.52;248.9984_0.52
88;306.95709;0.52;306.95709_0.52
88;308.95392;0.52;308.95392_0.52
88;364.91739;0.52;364.91739_0.52
88;366.91281;0.52;366.91281_0.52
89;810.39551;0.51;810.39551_0.51
89;812.39276;0.51;812.39276_0.51
89;814.38965;0.51;814.38965_0.51
89;816.38623;0.51;816.38623_0.51
89;818.38275;0.51;818.38275_0.51
90;406.77341;0.5;406.77341_0.5
90;410.76633;0.5;410.76633_0.5
90;466.72531;0.5;466.72531_0.5
90;468.72495;0.5;468.72495_0.5
90;544.74384;0.5;544.74384_0.5
91;293.03439;5.32;293.03439_5.32
91;176.07071;5.35;176.07071_5.35
91;130.06526;5.36;130.06526_5.36
91;198.05266;5.36;198.05266_5.36
91;277.99582;5.36;277.99582_5.36
92;327.00858;8.11;327.00858_8.11
92;329.00537;8.11;329.00537_8.11
92;331.00214;8.12;331.00214_8.12
92;348.98947;8.12;348.98947_8.12
92;350.98752;8.12;350.98752_8.12
93;477.2847;8.21;477.2847_8.21
93;535.28766;8.21;535.28766_8.21
93;257.22629;8.22;257.22629_8.22
93;317.24756;8.32;317.24756_8.32
93;317.24728;8.39;317.24728_8.39
94;281.24768;10.96;281.24768_10.96
94;303.23013;10.97;303.23013_10.97
94;337.1669;10.97;337.1669_10.97
94;339.16211;10.97;339.16211_10.97
94;366.18637;10.97;366.18637_10.97
95;678.48395;10.85;678.48395_10.85
95;721.50757;10.87;721.50757_10.87
95;634.45734;10.88;634.45734_10.88
95;546.40588;10.9;546.40588_10.9
95;589.42871;10.9;589.42871_10.9
96;522.48822;11.11;522.48822_11.11
96;393.40936;11.27;393.40936_11.27
96;495.478;11.47;495.478_11.47
96;479.48224;11.49;479.48224_11.49
96;564.53485;11.52;564.53485_11.52
97;661.43701;12.04;661.43701_12.04
97;726.48346;12.05;726.48346_12.05
97;465.46695;12.06;465.46695_12.06
97;487.44879;12.06;487.44879_12.06
97;575.53735;12.13;575.53735_12.13
98;136.0757;1.3;136.0757_1.3
98;165.05434;1.3;165.05434_1.3
98;182.08151;1.3;182.08151_1.3
98;147.04425;1.31;147.04425_1.31
99;136.07549;0.7;136.07549_0.7
99;147.04393;0.7;147.04393_0.7
99;165.05409;0.7;165.05409_0.7
99;182.08125;0.7;182.08125_0.7
100;262.87766;0.25;262.87766_0.25
100;264.87292;0.25;264.87292_0.25
100;266.87283;0.25;266.87283_0.25
100;336.80258;0.26;336.80258_0.26
101;127.03905;0.54;127.03905_0.54
101;145.04951;0.54;145.04951_0.54
101;163.06004;0.55;163.06004_0.55
101;241.10332;0.55;241.10332_0.55
102;786.82263;0.48;786.82263_0.48
102;854.80994;0.48;854.80994_0.48
102;922.79736;0.48;922.79736_0.48
102;990.78571;0.48;990.78571_0.48
103;516.87244;0.49;516.87244_0.49
103;788.82434;0.49;788.82434_0.49
103;856.81293;0.49;856.81293_0.49
103;652.84869;0.5;652.84869_0.5
104;170.85388;0.51;170.85388_0.51
104;172.85181;0.51;172.85181_0.51
104;228.81248;0.51;228.81248_0.51
104;230.81013;0.51;230.81013_0.51
105;434.85254;0.47;434.85254_0.47
105;502.83926;0.47;502.83926_0.47
105;706.80029;0.47;706.80029_0.47
105;774.78711;0.48;774.78711_0.48
106;220.93478;0.48;220.93478_0.48
106;288.92072;0.48;288.92072_0.48
106;356.90796;0.48;356.90796_0.48
106;424.89481;0.48;424.89481_0.48
107;284.93692;0.46;284.93692_0.46
107;266.927;0.47;266.927_0.47
107;334.91379;0.47;334.91379_0.47
107;606.86194;0.47;606.86194_0.47
108;332.8396;0.5;332.8396_0.5
108;400.82697;0.5;400.82697_0.5
108;402.82413;0.5;402.82413_0.5
108;586.72815;0.5;586.72815_0.5
109;429.06116;0.53;429.06116_0.53
109;499.03207;0.54;499.03207_0.54
109;501.02875;0.54;501.02875_0.54
109;225.03455;0.55;225.03455_0.55
110;705.83508;0.49;705.83508_0.49
110;773.82159;0.49;773.82159_0.49
110;671.84119;0.5;671.84119_0.5
110;739.82886;0.5;739.82886_0.5
111;157.71037;0.58;157.71037_0.58
111;353.03448;0.58;353.03448_0.58
111;629.1521;0.58;629.1521_0.58
111;337.06079;0.59;337.06079_0.59
112;148.97626;0.47;148.97626_0.47
112;170.95714;0.47;170.95714_0.47
112;430.82489;0.49;430.82489_0.49
112;750.48523;0.51;750.48523_0.51
113;398.74057;0.5;398.74057_0.5
113;400.73761;0.5;400.73761_0.5
113;454.69901;0.5;454.69901_0.5
113;458.6926;0.5;458.6926_0.5
114;422.74606;0.5;422.74606_0.5
114;426.7399;0.5;426.7399_0.5
114;482.70206;0.5;482.70206_0.5
114;490.73376;0.5;490.73376_0.5
115;308.82599;0.5;308.82599_0.5
115;366.78452;0.5;366.78452_0.5
115;432.77493;0.5;432.77493_0.5
115;434.77142;0.5;434.77142_0.5
116;568.74976;0.49;568.74976_0.49
116;696.69196;0.49;696.69196_0.49
116;764.67676;0.49;764.67676_0.49
116;628.70581;0.5;628.70581_0.5
117;130.0864;0.59;130.0864_0.59
117;288.20023;0.6;288.20023_0.6
117;144.10197;0.61;144.10197_0.61
117;287.19653;0.61;287.19653_0.61
118;188.07106;2.55;188.07106_2.55
118;205.09749;2.55;205.09749_2.55
118;146.05975;2.56;146.05975_2.56
118;159.09143;2.56;159.09143_2.56
119;120.08099;2.22;120.08099_2.22
119;166.08664;2.22;166.08664_2.22
119;131.04909;2.23;131.04909_2.23
119;149.06018;2.23;149.06018_2.23
120;159.06534;4.86;159.06534_4.86
120;241.06819;4.86;241.06819_4.86
120;350.02966;4.87;350.02966_4.87
120;459.14725;4.88;459.14725_4.88
121;299.11755;4.15;299.11755_4.15
121;160.08699;4.21;160.08699_4.21
121;190.09741;4.21;190.09741_4.21
121;292.01501;4.21;292.01501_4.21
122;371.22775;4.34;371.22775_4.34
122;388.25443;4.35;388.25443_4.35
122;432.28064;4.5;432.28064_4.5
122;432.28061;4.64;432.28061_4.64
123;675.54083;12.2;675.54083_12.2
123;697.52606;12.2;697.52606_12.2
123;689.5567;12.47;689.5567_12.47
123;711.54211;12.47;711.54211_12.47
124;191.18015;8.8;191.18015_8.8
124;223.20541;8.85;223.20541_8.85
124;191.17889;8.9;191.17889_8.9
124;209.18993;8.9;209.18993_8.9
125;816.42133;7.53;816.42133_7.53
125;417.22818;7.54;417.22818_7.54
125;622.30634;7.54;622.30634_7.54
125;622.30603;7.62;622.30603_7.62
126;524.2699;6.98;524.2699_6.98
126;568.29712;7.08;568.29712_7.08
126;382.28006;7.12;382.28006_7.12
126;640.3172;7.25;640.3172_7.25
127;529.22485;6.99;529.22485_6.99
127;551.27026;7.08;551.27026_7.08
127;573.25232;7.08;573.25232_7.08
127;717.29248;7.38;717.29248_7.38
128;235.16916;9.1;235.16916_9.1
128;296.22205;9.12;296.22205_9.12
128;301.17734;9.12;301.17734_9.12
128;249.18497;9.19;249.18497_9.19
129;522.87366;10.55;522.87366_10.55
129;551.89294;10.67;551.89294_10.67
129;580.91339;10.79;580.91339_10.79
129;638.95605;10.98;638.95605_10.98
130;270.31555;9.67;270.31555_9.67
130;715.51788;9.67;715.51788_9.67
130;793.5274;9.84;793.5274_9.84
130;773.56104;9.89;773.56104_9.89
131;541.45099;10.88;541.45099_10.88
131;584.47296;10.88;584.47296_10.88
131;672.52527;10.92;672.52527_10.92
131;584.47223;10.93;584.47223_10.93
132;279.64688;10.18;279.64688_10.18
132;271.65759;10.3;271.65759_10.3
132;279.64615;10.31;279.64615_10.31
132;539.31421;10.31;539.31421_10.31
133;553.43079;10.66;553.43079_10.66
133;509.40479;10.68;509.40479_10.68
133;597.45697;10.68;597.45697_10.68
133;641.48322;10.68;641.48322_10.68
134;810.99078;10.55;810.99078_10.55
134;811.98944;10.57;811.98944_10.57
134;550.31573;10.6;550.31573_10.6
134;811.4903;10.62;811.4903_10.62
135;544.33734;10.6;544.33734_10.6
135;1065.68481;10.6;1065.68481_10.6
135;805.01111;10.61;805.01111_10.61
135;545.34058;10.63;545.34058_10.63
136;480.30817;10.49;480.30817_10.49
136;480.30765;10.61;480.30765_10.61
136;502.28992;10.61;502.28992_10.61
136;1023.63794;10.61;1023.63794_10.61
137;529.31372;10.54;529.31372_10.54
137;530.32422;10.67;530.32422_10.67
137;572.37103;10.67;572.37103_10.67
137;594.35278;10.67;594.35278_10.67
138;228.23206;10.18;228.23206_10.18
138;254.24777;10.36;254.24777_10.36
138;276.22974;10.36;276.22974_10.36
138;268.26364;10.62;268.26364_10.62
139;256.26346;10.72;256.26346_10.72
139;265.25235;10.84;265.25235_10.84
139;282.27917;10.84;282.27917_10.84
139;203.62172;10.85;203.62172_10.85
140;408.30804;11.04;408.30804_11.04
140;242.21111;11.05;242.21111_11.05
140;243.19508;11.11;243.19508_11.11
140;228.19583;11.12;228.19583_11.12
141;468.47745;12.22;468.47745_12.22
141;495.51395;12.28;495.51395_12.28
141;505.49869;12.32;505.49869_12.32
141;540.53528;12.32;540.53528_12.32
142;559.50732;12.52;559.50732_12.52
142;721.45941;12.53;721.45941_12.53
142;461.43286;12.55;461.43286_12.55
142;599.53729;12.63;599.53729_12.63
143;597.28882;13.31;597.28882_13.31
143;611.30322;13.31;611.30322_13.31
143;551.28284;13.32;551.28284_13.32
143;625.31799;13.32;625.31799_13.32
144;391.28397;11.39;391.28397_11.39
144;413.26575;11.39;413.26575_11.39
144;803.5426;11.4;803.5426_11.4
144;411.77527;11.41;411.77527_11.41
145;244.86769;0.25;244.86769_0.25
145;245.86453;0.25;245.86453_0.25
145;246.86232;0.25;246.86232_0.25
146;281.91171;0.25;281.91171_0.25
146;295.89014;0.26;295.89014_0.26
146;381.80045;0.26;381.80045_0.26
147;299.06244;0.54;299.06244_0.54
147;294.00116;0.55;294.00116_0.55
147;414.04474;0.55;414.04474_0.55
148;159.07611;0.55;159.07611_0.55
148;176.10262;0.55;176.10262_0.55
148;198.08383;0.55;198.08383_0.55
149;608.86853;0.48;608.86853_0.48
149;642.86169;0.48;642.86169_0.48
149;676.85504;0.48;676.85504_0.48
150;842.73138;0.5;842.73138_0.5
150;868.737;0.5;868.737_0.5
150;936.72559;0.5;936.72559_0.5
151;312.91055;0.49;312.91055_0.49
151;380.89877;0.49;380.89877_0.49
151;176.93529;0.5;176.93529_0.5
152;640.81842;0.49;640.81842_0.49
152;708.80341;0.49;708.80341_0.49
152;776.79095;0.49;776.79095_0.49
153;508.81927;0.53;508.81927_0.53
153;512.81439;0.53;512.81439_0.53
153;510.8154;0.54;510.8154_0.54
154;656.79309;0.49;656.79309_0.49
154;724.77777;0.49;724.77777_0.49
154;792.76648;0.49;792.76648_0.49
155;402.90076;0.47;402.90076_0.47
155;470.88821;0.47;470.88821_0.47
155;538.87524;0.47;538.87524_0.47
156;221.93015;0.45;221.93015_0.45
156;249.92548;0.45;249.92548_0.45
156;263.94116;0.45;263.94116_0.45
157;990.26166;0.5;990.26166_0.5
157;738.45807;0.51;738.45807_0.51
157;740.45612;0.51;740.45612_0.51
158;463.08707;0.69;463.08707_0.69
158;527.08179;0.7;527.08179_0.7
158;477.10245;0.71;477.10245_0.71
159;258.10995;0.53;258.10995_0.53
159;280.09134;0.53;280.09134_0.53
159;296.06516;0.53;296.06516_0.53
160;243.18352;0.52;243.18352_0.52
160;332.09515;0.57;332.09515_0.57
160;310.11301;0.59;310.11301_0.59
161;136.04764;0.55;136.04764_0.55
161;316.11163;0.55;316.11163_0.55
161;227.12489;0.56;227.12489_0.56
162;133.03163;0.7;133.03163_0.7
162;150.05823;0.7;150.05823_0.7
162;150.05856;0.91;150.05856_0.91
163;169.03557;0.7;169.03557_0.7
163;337.06314;0.7;337.06314_0.7
163;480.00595;0.7;480.00595_0.7
164;285.96262;0.95;285.96262_0.95
164;169.03569;0.97;169.03569_0.97
164;267.95239;0.97;267.95239_0.97
165;594.75977;0.49;594.75977_0.49
165;596.75775;0.49;596.75775_0.49
165;528.76996;0.5;528.76996_0.5
166;684.80115;0.49;684.80115_0.49
166;342.86011;0.5;342.86011_0.5
166;412.84503;0.5;412.84503_0.5
167;120.0196;0.46;120.0196_0.46
167;121.01654;0.46;121.01654_0.46
167;133.03502;0.46;133.03502_0.46
168;622.75964;0.49;622.75964_0.49
168;486.78552;0.5;486.78552_0.5
168;552.77594;0.5;552.77594_0.5
169;338.78488;0.5;338.78488_0.5
169;342.77939;0.5;342.77939_0.5
169;396.74319;0.5;396.74319_0.5
170;578.76953;0.49;578.76953_0.49
170;646.75677;0.49;646.75677_0.49
170;714.74353;0.49;714.74353_0.49
171;257.14703;0.54;257.14703_0.54
171;273.12091;0.54;273.12091_0.54
171;279.19168;0.54;279.19168_0.54
172;167.0894;1.5;167.0894_1.5
172;120.0811;1.51;120.0811_1.51
172;166.08658;1.51;166.08658_1.51
173;192.06584;1.98;192.06584_1.98
173;209.09259;1.98;209.09259_1.98
173;367.14978;2.06;367.14978_2.06
174;172.97849;15.41;172.97849_15.41
174;174.97542;15.41;174.97542_15.41
174;176.97362;15.42;176.97362_15.42
175;214.91769;15.39;214.91769_15.39
175;246.94402;15.39;246.94402_15.39
175;278.96982;15.39;278.96982_15.39
176;203.05891;15.4;203.05891_15.4
176;221.06926;15.4;221.06926_15.4
176;235.0856;15.4;235.0856_15.4
177;327.20142;3.83;327.20142_3.83
177;344.22815;3.84;344.22815_3.84
177;344.22803;4.03;344.22803_4.03
178;239.14888;3.21;239.14888_3.21
178;283.17508;3.41;283.17508_3.41
178;305.15692;3.41;305.15692_3.41
179;724.52716;13.37;724.52716_13.37
179;746.50922;13.38;746.50922_13.38
179;750.54187;13.51;750.54187_13.51
180;725.5473;12.31;725.5473_12.31
180;701.55731;12.32;701.55731_12.32
180;723.53857;12.32;723.53857_12.32
181;256.16214;7.71;256.16214_7.71
181;255.15904;7.72;255.15904_7.72
181;272.18552;7.72;272.18552_7.72
182;147.78072;6.25;147.78072_6.25
182;303.1434;6.25;303.1434_6.25
182;325.12546;6.25;325.12546_6.25
183;369.15164;6.44;369.15164_6.44
183;397.14783;6.58;397.14783_6.58
183;375.16373;6.59;375.16373_6.59
184;617.27722;7.18;617.27722_7.18
184;623.29034;7.25;623.29034_7.25
184;645.27344;7.25;645.27344_7.25
185;670.17548;9.02;670.17548_9.02
185;327.0784;9.04;327.0784_9.04
185;386.15149;9.04;386.15149_9.04
186;338.23227;9.45;338.23227_9.45
186;279.159;9.46;279.159_9.46
186;280.16208;9.49;280.16208_9.49
187;415.21149;8.67;415.21149_8.67
187;474.28494;8.67;474.28494_8.67
187;432.23819;8.68;432.23819_8.68
188;293.17453;9.6;293.17453_9.6
188;294.17813;9.67;294.17813_9.67
188;293.17416;9.68;293.17416_9.68
189;286.14374;8.41;286.14374_8.41
189;308.12582;8.43;308.12582_8.43
189;345.21735;8.43;345.21735_8.43
190;1015.67242;10.33;1015.67242_10.33
190;1043.70227;10.6;1043.70227_10.6
190;1001.65454;10.61;1001.65454_10.61
191;1021.62433;10.3;1021.62433_10.3
191;184.07132;10.36;184.07132_10.36
191;969.66858;10.41;969.66858_10.41
192;851.56909;10.05;851.56909_10.05
192;831.60278;10.09;831.60278_10.09
192;853.58496;10.09;853.58496_10.09
193;600.46838;10.44;600.46838_10.44
193;644.4942;10.44;644.4942_10.44
193;556.44214;10.45;556.44214_10.45
194;280.65417;10.6;280.65417_10.6
194;541.32935;10.6;541.32935_10.6
194;543.34528;10.91;543.34528_10.91
195;515.31537;10.33;515.31537_10.33
195;267.64828;10.36;267.64828_10.36
195;515.31396;10.48;515.31396_10.48
196;391.34164;10.89;391.34164_10.89
196;435.36816;10.89;435.36816_10.89
196;479.39401;10.89;479.39401_10.89
197;633.4563;10.89;633.4563_10.89
197;677.48291;10.89;677.48291_10.89
197;545.40222;10.93;545.40222_10.93
198;542.32471;10.01;542.32471_10.01
198;564.30646;10.02;564.30646_10.02
198;500.27731;10.04;500.27731_10.04
199;468.30719;9.78;468.30719_9.78
199;468.30667;9.93;468.30667_9.93
199;490.29028;9.93;490.29028_9.93
200;510.35541;10.7;510.35541_10.7
200;512.36121;10.71;512.36121_10.71
200;532.33698;10.71;532.33698_10.71
201;552.33105;10.92;552.33105_10.92
201;814.01233;10.92;814.01233_10.92
201;814.51465;10.93;814.51465_10.93
202;522.3548;10.48;522.3548_10.48
202;1017.68591;10.49;1017.68591_10.49
202;522.35529;10.6;522.35529_10.6
203;518.3244;10.03;518.3244_10.03
203;476.27661;10.04;476.27661_10.04
203;540.30627;10.04;540.30627_10.04
204;802.48981;10.31;802.48981_10.31
204;1061.6543;10.31;1061.6543_10.31
204;801.98816;10.32;801.98816_10.32
205;329.24753;10.9;329.24753_10.9
205;346.2742;10.9;346.2742_10.9
205;351.22913;10.9;351.22913_10.9
206;1041.68689;10.49;1041.68689_10.49
206;546.3548;10.5;546.3548_10.5
206;568.33759;10.51;568.33759_10.51
207;494.32404;10.11;494.32404_10.11
207;516.30615;10.11;516.30615_10.11
207;452.27692;10.12;452.27692_10.12
208;566.32129;10.29;566.32129_10.29
208;502.29254;10.3;502.29254_10.3
208;524.2746;10.31;524.2746_10.31
209;457.40207;11.66;457.40207_11.66
209;495.47687;11.79;495.47687_11.79
209;495.4772;11.97;495.4772_11.97
210;451.45117;12.92;451.45117_12.92
210;580.60303;12.93;580.60303_12.93
210;587.53729;12.96;587.53729_12.96
211;204.06439;0.7;204.06439_0.7
211;363.15375;0.7;363.15375_0.7
212;188.12811;0.62;188.12811_0.62
212;172.13322;0.71;172.13322_0.71
213;199.08234;0.7;199.08234_0.7
213;167.0562;0.71;167.0562_0.71
214;152.96877;0.26;152.96877_0.26
214;154.96469;0.26;154.96469_0.26
215;267.8952;0.25;267.8952_0.25
215;277.88055;0.25;277.88055_0.25
216;361.79388;0.25;361.79388_0.25
216;363.78918;0.25;363.78918_0.25
217;195.12085;0.69;195.12085_0.69
217;194.11765;0.7;194.11765_0.7
218;121.07257;0.55;121.07257_0.55
218;261.14334;0.55;261.14334_0.55
219;224.09685;0.48;224.09685_0.48
219;223.09315;0.49;223.09315_0.49
220;441.07376;0.54;441.07376_0.54
220;443.07043;0.54;443.07043_0.54
221;203.05276;0.54;203.05276_0.54
221;383.11514;0.54;383.11514_0.54
222;325.11273;0.54;325.11273_0.54
222;289.09152;0.56;289.09152_0.56
223;186.11218;0.69;186.11218_0.69
223;200.12775;0.71;200.12775_0.71
224;213.07446;0.5;213.07446_0.5
224;235.05692;0.5;235.05692_0.5
225;231.14511;0.55;231.14511_0.55
225;253.12766;0.55;253.12766_0.55
226;160.13264;0.62;160.13264_0.62
226;178.086;0.67;178.086_0.67
227;912.76733;0.49;912.76733_0.49
227;980.75464;0.5;980.75464_0.5
228;204.97925;1.45;204.97925_1.45
228;235.99782;1.45;235.99782_1.45
229;162.96971;0.25;162.96971_0.25
229;178.99997;0.25;178.99997_0.25
230;131.01862;0.46;131.01862_0.46
230;146.99675;0.46;146.99675_0.46
231;582.64453;0.5;582.64453_0.5
231;584.6416;0.5;584.6416_0.5
232;358.84323;0.5;358.84323_0.5
232;426.82132;0.5;426.82132_0.5
233;392.90247;0.54;392.90247_0.54
233;394.90027;0.54;394.90027_0.54
234;194.03296;0.5;194.03296_0.5
234;216.01472;0.5;216.01472_0.5
235;142.54802;0.59;142.54802_0.59
235;331.05298;0.6;331.05298_0.6
236;285.06314;0.45;285.06314_0.45
236;303.07394;0.45;303.07394_0.45
237;200.93697;0.45;200.93697_0.45
237;198.93944;0.46;198.93944_0.46
238;542.81903;0.47;542.81903_0.47
238;610.80627;0.47;610.80627_0.47
239;264.9549;0.46;264.9549_0.46
239;376.90149;0.46;376.90149_0.46
240;681.83252;0.48;681.83252_0.48
240;715.8255;0.48;715.8255_0.48
241;665.85974;0.47;665.85974_0.47
241;699.85193;0.47;699.85193_0.47
242;151.00896;0.46;151.00896_0.46
242;132.99794;0.47;132.99794_0.47
243;346.00888;0.62;346.00888_0.62
243;344.01251;0.63;344.01251_0.63
244;229.15468;0.7;229.15468_0.7
244;241.15445;0.7;241.15445_0.7
245;267.98972;0.69;267.98972_0.69
245;357.98447;0.7;357.98447_0.7
246;233.98199;0.7;233.98199_0.7
246;402.00961;0.7;402.00961_0.7
247;154.05872;0.57;154.05872_0.57
247;176.04068;0.57;176.04068_0.57
248;472.80826;0.49;472.80826_0.49
248;336.83368;0.5;336.83368_0.5
249;376.92773;0.54;376.92773_0.54
249;614.94891;0.54;614.94891_0.54
250;972.29126;0.5;972.29126_0.5
250;974.28766;0.51;974.28766_0.51
251;133.06096;0.52;133.06096_0.52
251;155.04266;0.52;155.04266_0.52
252;214.05743;0.54;214.05743_0.54
252;236.03979;0.54;236.03979_0.54
253;192.03267;0.68;192.03267_0.68
253;259.99783;0.73;259.99783_0.73
254;153.00755;0.46;153.00755_0.46
254;162.99141;0.46;162.99141_0.46
255;231.08389;0.7;231.08389_0.7
255;326.18036;0.7;326.18036_0.7
256;167.05641;1.97;167.05641_1.97
256;181.07202;2.17;181.07202_2.17
257;185.12872;2.45;185.12872_2.45
257;185.12881;2.81;185.12881_2.81
258;195.08792;3.85;195.08792_3.85
258;326.03088;3.85;326.03088_3.85
259;247.14406;2.84;247.14406_2.84
259;247.14418;3.06;247.14418_3.06
260;155.13101;15.46;155.13101_15.46
260;157.12744;15.47;157.12744_15.47
261;133.03415;15.37;133.03415_15.37
261;135.03203;15.37;135.03203_15.37
262;459.15393;15.42;459.15393_15.42
262;445.13745;15.43;445.13745_15.43
263;315.97256;15.5;315.97256_15.5
263;317.96906;15.5;317.96906_15.5
264;185.97449;15.52;185.97449_15.52
264;187.97156;15.52;187.97156_15.52
265;130.06529;6.09;130.06529_6.09
265;190.08636;6.09;190.08636_6.09
266;255.11984;5.89;255.11984_5.89
266;211.09416;6.05;211.09416_6.05
267;420.2377;5.99;420.2377_5.99
267;390.22739;6.02;390.22739_6.02
268;283.00687;4.84;283.00687_4.84
268;285.0065;4.84;285.0065_4.84
269;206.08121;4.89;206.08121_4.89
269;291.01874;4.89;291.01874_4.89
270;388.25446;4.19;388.25446_4.19
270;393.20941;4.19;393.20941_4.19
271;180.06598;3.6;180.06598_3.6
271;202.04779;3.61;202.04779_3.61
272;703.57098;12.76;703.57098_12.76
272;725.55829;12.76;725.55829_12.76
273;780.55212;12.69;780.55212_12.69
273;802.53601;12.69;802.53601_12.69
274;754.53693;12.47;754.53693_12.47
274;730.53748;12.54;730.53748_12.54
275;742.57648;13.51;742.57648_13.51
275;764.55579;13.51;764.55579_13.51
276;758.56818;13.16;758.56818_13.16
276;769.5603;13.16;769.5603_13.16
277;771.57562;13.73;771.57562_13.73
277;782.5661;13.73;782.5661_13.73
278;732.55219;12.98;732.55219_12.98
278;754.53485;12.98;754.53485_12.98
279;734.56842;13.58;734.56842_13.58
279;757.62036;13.69;757.62036_13.69
280;729.58929;12.91;729.58929_12.91
280;751.57074;12.91;751.57074_12.91
281;817.56055;12.96;817.56055_12.96
281;806.56836;13.02;806.56836_13.02
282;638.53406;13.28;638.53406_13.28
282;638.53375;13.37;638.53375_13.37
283;537.53522;14.02;537.53522_14.02
283;559.51678;14.03;559.51678_14.03
284;663.45416;13.62;663.45416_13.62
284;680.48053;13.62;680.48053_13.62
285;1052.05859;13.14;1052.05859_13.14
285;799.87079;13.15;799.87079_13.15
286;578.68231;12.93;578.68231_12.93
286;579.01617;12.96;579.01617_12.96
287;1004.51135;13.39;1004.51135_13.39
287;906.03992;13.42;906.03992_13.42
288;418.22226;6.96;418.22226_6.96
288;404.20663;7.08;404.20663_7.08
289;279.09329;7.82;279.09329_7.82
289;338.16678;7.82;338.16678_7.82
290;421.16791;8.14;421.16791_8.14
290;587.25964;8.25;587.25964_8.25
291;343.21069;7.96;343.21069_7.96
291;343.21002;8.04;343.21002_8.04
292;161.13269;8.51;161.13269_8.51
292;161.13255;8.59;161.13255_8.59
293;497.25909;6.07;497.25909_6.07
293;519.24109;6.07;519.24109_6.07
294;277.1282;6.54;277.1282_6.54
294;299.10895;6.54;299.10895_6.54
295;364.19641;6.44;364.19641_6.44
295;392.19153;6.58;392.19153_6.58
296;422.18259;7.54;422.18259_7.54
296;458.19403;7.65;458.19403_7.65
297;419.70535;7.54;419.70535_7.54
297;455.71698;7.66;455.71698_7.66
298;440.32141;7.77;440.32141_7.77
298;442.33746;7.95;442.33746_7.95
299;799.39459;7.53;799.39459_7.53
299;627.26129;7.62;627.26129_7.62
300;375.28928;9.9;375.28928_9.9
300;357.27896;9.91;357.27896_9.91
301;450.32162;8.29;450.32162_8.29
301;472.30328;8.3;472.30328_8.3
302;466.31683;8.78;466.31683_8.78
302;519.22791;8.79;519.22791_8.79
303;288.25336;9.34;288.25336_9.34
303;310.23523;9.34;310.23523_9.34
304;588.1745;8.52;588.1745_8.52
304;652.1864;8.68;652.1864_8.68
305;483.35257;8.42;483.35257_8.42
305;505.33463;8.42;505.33463_8.42
306;498.36334;8.29;498.36334_8.29
306;500.37955;8.42;500.37955_8.42
307;205.08591;9.51;205.08591_9.51
307;279.15915;9.51;279.15915_9.51
308;385.24796;9.51;385.24796_9.51
308;315.15659;9.56;315.15659_9.56
309;672.48718;9.35;672.48718_9.35
309;674.50476;9.41;674.50476_9.41
310;271.22656;9.57;271.22656_9.57
310;293.20792;9.6;293.20792_9.6
311;259.19006;9.53;259.19006_9.53
311;281.17227;9.53;281.17227_9.53
312;401.25137;8.91;401.25137_8.91
312;599.43494;9.14;599.43494_9.14
313;563.37732;8.81;563.37732_8.81
313;621.41687;9.14;621.41687_9.14
314;239.16412;9.68;239.16412_9.68
314;261.14606;9.69;261.14606_9.69
315;273.20581;9.84;273.20581_9.84
315;295.18799;9.84;295.18799_9.84
316;733.46906;9.48;733.46906_9.48
316;553.33478;9.62;553.33478_9.62
317;821.37695;7.54;821.37695_7.54
317;893.39514;7.64;893.39514_7.64
318;424.34222;9.24;424.34222_9.24
318;400.3421;9.39;400.3421_9.39
319;251.12798;8.85;251.12798_8.85
319;291.1203;8.86;291.1203_8.86
320;209.11731;8.86;209.11731_8.86
320;283.1535;8.86;283.1535_8.86
321;493.27939;8.33;493.27939_8.33
321;335.25797;8.36;335.25797_8.36
322;337.10443;8.58;337.10443_8.58
322;137.62036;8.63;137.62036_8.63
323;1005.68585;10.92;1005.68585_10.92
323;1047.73328;10.92;1047.73328_10.92
324;656.52911;11.41;656.52911_11.41
324;612.50256;11.42;612.50256_11.42
325;403.23267;9.95;403.23267_9.95
325;462.30606;9.95;462.30606_9.95
326;425.21442;9.95;425.21442_9.95
326;426.21799;9.96;426.21799_9.96
327;657.47522;9.43;657.47522_9.43
327;735.487;9.6;735.487_9.6
328;348.28964;11.06;348.28964_11.06
328;331.26321;11.07;331.26321_11.07
329;408.36832;10.93;408.36832_10.93
329;452.39444;10.93;452.39444_10.93
330;428.33698;10.43;428.33698_10.43
330;450.32089;10.43;450.32089_10.43
331;429.31906;10.46;429.31906_10.46
331;473.34534;10.46;473.34534_10.46
332;575.4137;10.69;575.4137_10.69
332;619.44061;10.69;619.44061_10.69
333;664.46838;10.67;664.46838_10.67
333;708.49438;10.68;708.49438_10.68
334;438.28864;10.08;438.28864_10.08
334;467.30899;10.25;467.30899_10.25
335;637.30542;10.56;637.30542_10.56
335;696.37878;10.56;696.37878_10.56
336;355.28186;10.66;355.28186_10.66
336;399.30817;10.67;399.30817_10.67
337;255.2316;9.66;255.2316_9.66
337;295.22552;9.66;295.22552_9.66
338;283.26437;10.21;283.26437_10.21
338;323.25531;10.21;323.25531_10.21
339;575.46735;11.14;575.46735_11.14
339;593.47687;11.14;593.47687_11.14
340;568.42706;11.44;568.42706_11.44
340;599.44397;11.45;599.44397_11.45
341;377.26636;10.68;377.26636_10.68
341;379.28207;10.95;379.28207_10.95
342;550.38641;10.99;550.38641_10.99
342;572.36853;11;572.36853_11
343;592.3371;10.44;592.3371_10.44
343;570.35529;10.45;570.35529_10.45
344;470.28796;10.06;470.28796_10.06
344;512.33453;10.07;512.33453_10.07
345;542.32178;10.31;542.32178_10.31
345;500.2749;10.32;500.2749_10.32
346;993.6767;10.47;993.6767_10.47
346;991.67059;10.48;991.67059_10.48
347;266.6391;10.1;266.6391_10.1
347;291.647;10.3;291.647_10.3
348;464.31363;10.79;464.31363_10.79
348;466.32895;11.07;466.32895_11.07
349;482.3605;10.76;482.3605_10.76
349;504.34244;10.76;504.34244_10.76
350;480.34488;10.69;480.34488_10.69
350;502.32642;10.69;502.32642_10.69
351;380.25613;10.04;380.25613_10.04
351;382.27164;10.22;382.27164_10.22
352;415.32007;10.73;415.32007_10.73
352;437.30252;10.73;437.30252_10.73
353;454.29242;10.49;454.29242_10.49
353;476.27478;10.51;476.27478_10.51
354;568.33923;10.28;568.33923_10.28
354;590.32159;10.28;590.32159_10.28
355;548.37122;10.62;548.37122_10.62
355;548.37054;10.74;548.37054_10.74
356;280.26358;10.57;280.26358_10.57
356;302.24542;10.57;302.24542_10.57
357;278.24564;10.72;278.24564_10.72
357;304.26074;10.85;304.26074_10.85
358;310.30957;11.24;310.30957_11.24
358;332.29178;11.25;332.29178_11.25
359;359.31546;11.25;359.31546_11.25
359;381.29721;11.25;381.29721_11.25
360;424.28348;11.06;424.28348_11.06
360;737.56445;11.13;737.56445_11.13
361;445.41788;11.04;445.41788_11.04
361;445.41849;11.11;445.41849_11.11
362;740.52277;13.06;740.52277_13.06
362;705.58893;13.07;705.58893_13.07
363;498.48767;11.78;498.48767_11.78
363;542.47803;11.84;542.47803_11.84
364;653.35071;13.29;653.35071_13.29
364;697.34149;13.32;697.34149_13.32
