RNC;mz;rt;mz_rt
0;144.92371;0.09;144.92371_0.09
0;235.92615;0.1;235.92615_0.1
0;190.92793;0.11;190.92793_0.11
0;231.93166;0.11;231.93166_0.11
0;307.85666;0.12;307.85666_0.12
0;294.88559;0.45;294.88559_0.45
0;551.79974;0.45;551.79974_0.45
0;239.92503;0.46;239.92503_0.46
0;320.88678;0.46;320.88678_0.46
0;402.91769;0.46;402.91769_0.46
0;570.84808;0.47;570.84808_0.47
0;678.81128;0.47;678.81128_0.47
0;780.82831;0.47;780.82831_0.47
0;848.81641;0.47;848.81641_0.47
0;938.79572;0.48;938.79572_0.48
0;290.85617;0.49;290.85617_0.49
0;486.88287;0.49;486.88287_0.49
0;610.81897;0.49;610.81897_0.49
0;630.88007;0.49;630.88007_0.49
0;638.86658;0.49;638.86658_0.49
0;662.83185;0.49;662.83185_0.49
0;730.81647;0.49;730.81647_0.49
0;746.79004;0.49;746.79004_0.49
0;994.78101;0.49;994.78101_0.49
0;1002.76654;0.49;1002.76654_0.49
0;1062.7677;0.49;1062.7677_0.49
0;160.91466;0.5;160.91466_0.5
0;162.91168;0.5;162.91168_0.5
0;172.94084;0.5;172.94084_0.5
0;488.73816;0.5;488.73816_0.5
0;602.56915;0.5;602.56915_0.5
0;604.65558;0.5;604.65558_0.5
0;614.6842;0.5;614.6842_0.5
0;624.7132;0.5;624.7132_0.5
0;642.7738;0.5;642.7738_0.5
0;654.49323;0.5;654.49323_0.5
0;712.45081;0.5;712.45081_0.5
0;894.79834;0.5;894.79834_0.5
0;154.06136;0.51;154.06136_0.51
0;406.68414;0.51;406.68414_0.51
0;408.7244;0.51;408.7244_0.51
0;598.53143;0.51;598.53143_0.51
0;648.50183;0.51;648.50183_0.51
0;816.38708;0.51;816.38708_0.51
0;822.37817;0.51;822.37817_0.51
0;176.00922;0.52;176.00922_0.52
0;373.8132;0.52;373.8132_0.52
0;132.02922;0.53;132.02922_0.53
0;330.95062;0.53;330.95062_0.53
0;196.07455;0.54;196.07455_0.54
0;242.05183;0.54;242.05183_0.54
0;371.94757;0.54;371.94757_0.54
0;163.02399;0.55;163.02399_0.55
0;165.03983;0.55;165.03983_0.55
0;195.05069;0.55;195.05069_0.55
0;157.03586;0.56;157.03586_0.56
0;185.02168;0.56;185.02168_0.56
0;193.81528;0.56;193.81528_0.56
0;245.04347;0.56;245.04347_0.56
0;307.11508;0.56;307.11508_0.56
0;315.0423;0.57;315.0423_0.57
0;491.07712;0.57;491.07712_0.57
0;191.0197;0.58;191.0197_0.58
0;665.09491;0.58;665.09491_0.58
0;941.21228;0.58;941.21228_0.58
0;233.07817;0.59;233.07817_0.59
0;247.09393;0.59;247.09393_0.59
0;377.08627;0.59;377.08627_0.59
0;950.1568;0.59;950.1568_0.59
0;149.0446;0.6;149.0446_0.6
0;191.0555;0.6;191.0555_0.6
0;254.98204;0.6;254.98204_0.6
0;274.1051;0.6;274.1051_0.6
0;313.0658;0.6;313.0658_0.6
0;329.03973;0.6;329.03973_0.6
0;335.04794;0.6;335.04794_0.6
0;389.05139;0.6;389.05139_0.6
0;627.13873;0.6;627.13873_0.6
0;649.12427;0.6;649.12427_0.6
0;748.25122;0.6;748.25122_0.6
0;161.00836;0.61;161.00836_0.61
0;166.01715;0.61;166.01715_0.61
0;369.00574;0.61;369.00574_0.61
0;627.0921;0.61;627.0921_0.61
0;207.01471;0.62;207.01471_0.62
0;227.10405;0.62;227.10405_0.62
0;401.95404;0.63;401.95404_0.63
0;494.19992;0.64;494.19992_0.64
0;176.99303;0.66;176.99303_0.66
0;133.01326;0.67;133.01326_0.67
0;353.01108;0.67;353.01108_0.67
0;369.00586;0.68;369.00586_0.68
0;145.01378;0.69;145.01378_0.69
0;175.02432;0.69;175.02432_0.69
0;185.99348;0.69;185.99348_0.69
0;266.94666;0.69;266.94666_0.69
0;372.10507;0.69;372.10507_0.69
0;373.00565;0.69;373.00565_0.69
0;135.03033;0.7;135.03033_0.7
0;147.02901;0.7;147.02901_0.7
0;151.02521;0.7;151.02521_0.7
0;160.06088;0.7;160.06088_0.7
0;173.98619;0.7;173.98619_0.7
0;182.04553;0.7;182.04553_0.7
0;185.05626;0.7;185.05626_0.7
0;188.00208;0.7;188.00208_0.7
0;189.03995;0.7;189.03995_0.7
0;197.0675;0.7;197.0675_0.7
0;218.06683;0.7;218.06683_0.7
0;224.97948;0.7;224.97948_0.7
0;235.00858;0.7;235.00858_0.7
0;269.08789;0.7;269.08789_0.7
0;281.03622;0.7;281.03622_0.7
0;358.04697;0.7;358.04697_0.7
0;428.05234;0.7;428.05234_0.7
0;503.078;0.7;503.078_0.7
0;323.03885;0.71;323.03885_0.71
0;157.01103;0.72;157.01103_0.72
0;181.03632;0.72;181.03632_0.72
0;219.07715;0.73;219.07715_0.73
0;171.02684;0.74;171.02684_0.74
0;208.97365;0.74;208.97365_0.74
0;128.03439;1.11;128.03439_1.11
0;180.06573;1.29;180.06573_1.29
0;243.06306;1.34;243.06306_1.34
0;247.96268;1.44;247.96268_1.44
0;171.02695;1.45;171.02695_1.45
0;275.00992;1.5;275.00992_1.5
0;164.07098;1.51;164.07098_1.51
0;267.07397;1.79;267.07397_1.79
0;204.9809;1.8;204.9809_1.8
0;326.08878;1.92;326.08878_1.92
0;218.1035;2.16;218.1035_2.16
0;324.91425;2.21;324.91425_2.21
0;203.082;2.55;203.082_2.55
0;271.07059;2.55;271.07059_2.55
0;218.10349;2.64;218.10349_2.64
0;303.0726;2.75;303.0726_2.75
0;271.07059;2.94;271.07059_2.94
0;181.05049;3.11;181.05049_3.11
0;129.05493;3.41;129.05493_3.41
0;203.00166;3.42;203.00166_3.42
0;197.0421;3.63;197.0421_3.63
0;263.10333;3.72;263.10333_3.72
0;144.01163;4.11;144.01163_4.11
0;249.08841;4.26;249.08841_4.26
0;131.07048;4.56;131.07048_4.56
0;186.11322;4.74;186.11322_4.74
0;311.14069;4.82;311.14069_4.82
0;367.12231;4.97;367.12231_4.97
0;330.03256;5.06;330.03256_5.06
0;441.12299;5.24;441.12299_5.24
0;365.10706;5.32;365.10706_5.32
0;680.31476;5.59;680.31476_5.59
0;473.14594;5.67;473.14594_5.67
0;664.32001;5.67;664.32001_5.67
0;383.15384;5.82;383.15384_5.82
0;531.18549;5.89;531.18549_5.89
0;759.3703;5.98;759.3703_5.98
0;583.25732;5.99;583.25732_5.99
0;187.09703;6.05;187.09703_6.05
0;273.04459;6.25;273.04459_6.25
0;269.15134;6.34;269.15134_6.34
0;383.15372;6.5;383.15372_6.5
0;159.10194;6.58;159.10194_6.58
0;357.10205;6.64;357.10205_6.64
0;427.17999;6.69;427.17999_6.69
0;463.30722;6.7;463.30722_6.7
0;423.08615;6.71;423.08615_6.71
0;415.21655;6.74;415.21655_6.74
0;602.30157;6.74;602.30157_6.74
0;337.0397;6.78;337.0397_6.78
0;201.11285;6.82;201.11285_6.82
0;494.19412;6.87;494.19412_6.87
0;478.28174;6.89;478.28174_6.89
0;949.67188;7.06;949.67188_7.06
0;271.06165;7.08;271.06165_7.08
0;228.16093;7.09;228.16093_7.09
0;539.25037;7.13;539.25037_7.13
0;333.13599;7.19;333.13599_7.19
0;421.18756;7.19;421.18756_7.19
0;507.2608;7.21;507.2608_7.21
0;523.25555;7.23;523.25555_7.23
0;583.25732;7.24;583.25732_7.24
0;360.23993;7.25;360.23993_7.25
0;215.03865;7.26;215.03865_7.26
0;488.19345;7.27;488.19345_7.27
0;413.20096;7.28;413.20096_7.28
0;481.24487;7.31;481.24487_7.31
0;425.11517;7.34;425.11517_7.34
0;256.98608;7.43;256.98608_7.43
0;377.16138;7.48;377.16138_7.48
0;314.10419;7.49;314.10419_7.49
0;624.95715;7.52;624.95715_7.52
0;217.97841;7.55;217.97841_7.55
0;452.06595;7.63;452.06595_7.63
0;257.08533;7.64;257.08533_7.64
0;423.10184;7.71;423.10184_7.71
0;253.14468;7.72;253.14468_7.72
0;209.15442;7.73;209.15442_7.73
0;413.2012;7.77;413.2012_7.77
0;411.18488;7.8;411.18488_7.8
0;461.29147;7.81;461.29147_7.81
0;229.08716;7.82;229.08716_7.82
0;239.0927;7.83;239.0927_7.83
0;464.30246;7.87;464.30246_7.87
0;398.93787;7.91;398.93787_7.91
0;375.19281;7.96;375.19281_7.96
0;185.11795;7.99;185.11795_7.99
0;698.37689;8.02;698.37689_8.02
0;487.11566;8.05;487.11566_8.05
0;565.08051;8.05;565.08051_8.05
0;575.10938;8.07;575.10938_8.07
0;663.36115;8.1;663.36115_8.1
0;581.24152;8.27;581.24152_8.27
0;629.09277;8.28;629.09277_8.28
0;464.30273;8.31;464.30273_8.31
0;293.17624;8.35;293.17624_8.35
0;267.16055;8.38;267.16055_8.38
0;329.11539;8.41;329.11539_8.41
0;187.13365;8.47;187.13365_8.47
0;767.14679;8.61;767.14679_8.61
0;447.13416;8.62;447.13416_8.62
0;446.29196;8.64;446.29196_8.64
0;213.14944;8.72;213.14944_8.72
0;464.3027;8.78;464.3027_8.78
0;624.34003;8.8;624.34003_8.8
0;657.33276;8.84;657.33276_8.84
0;627.37616;8.85;627.37616_8.85
0;556.32678;8.9;556.32678_8.9
0;333.1825;8.94;333.1825_8.94
0;656.34589;8.95;656.34589_8.95
0;821.13141;8.95;821.13141_8.95
0;831.16071;8.95;831.16071_8.95
0;205.12331;8.96;205.12331_8.96
0;266.10373;8.98;266.10373_8.98
0;311.22302;9.01;311.22302_9.01
0;433.26031;9.04;433.26031_9.04
0;534.25165;9.1;534.25165_9.1
0;723.0907;9.11;723.0907_9.11
0;627.11383;9.12;627.11383_9.12
0;959.18481;9.2;959.18481_9.2
0;390.98383;9.22;390.98383_9.22
0;507.22467;9.25;507.22467_9.25
0;573.13007;9.25;573.13007_9.25
0;726.50787;9.25;726.50787_9.25
0;601.39722;9.26;601.39722_9.26
0;755.1391;9.28;755.1391_9.28
0;391.28632;9.31;391.28632_9.31
0;475.26825;9.32;475.26825_9.32
0;611.38165;9.33;611.38165_9.33
0;431.31729;9.34;431.31729_9.34
0;723.0907;9.36;723.0907_9.36
0;448.30762;9.41;448.30762_9.41
0;893.19293;9.42;893.19293_9.42
0;637.14301;9.47;637.14301_9.47
0;584.35803;9.5;584.35803_9.5
0;423.12302;9.51;423.12302_9.51
0;701.15527;9.54;701.15527_9.54
0;829.18036;9.55;829.18036_9.55
0;915.12903;9.56;915.12903_9.56
0;765.16779;9.59;765.16779_9.59
0;766.17529;9.59;766.17529_9.59
0;851.11652;9.61;851.11652_9.61
0;315.25449;9.62;315.25449_9.62
0;373.20618;9.62;373.20618_9.62
0;529.33948;9.62;529.33948_9.62
0;376.22665;9.63;376.22665_9.63
0;829.18048;9.64;829.18048_9.64
0;915.12909;9.65;915.12909_9.65
0;658.36151;9.66;658.36151_9.66
0;272.23114;9.68;272.23114_9.68
0;979.14185;9.69;979.14185_9.69
0;291.1608;9.7;291.1608_9.7
0;1043.1521;9.73;1043.1521_9.73
0;276.1608;9.74;276.1608_9.74
0;487.32834;9.75;487.32834_9.75
0;1021.21857;9.75;1021.21857_9.75
0;512.30017;9.78;512.30017_9.78
0;1085.23096;9.78;1085.23096_9.78
0;432.31351;9.82;432.31351_9.82
0;343.22821;9.93;343.22821_9.93
0;424.24756;9.95;424.24756_9.95
0;584.2312;9.95;584.2312_9.95
0;648.27612;9.95;648.27612_9.95
0;429.30151;9.96;429.30151_9.96
0;538.31635;9.97;538.31635_9.97
0;377.20123;10.06;377.20123_10.06
0;556.32672;10.07;556.32672_10.07
0;449.25369;10.09;449.25369_10.09
0;284.22385;10.11;284.22385_10.11
0;476.27905;10.2;476.27905_10.2
0;612.33197;10.2;612.33197_10.2
0;500.27914;10.22;500.27914_10.22
0;524.27911;10.22;524.27911_10.22
0;602.30359;10.27;602.30359_10.27
0;757.47675;10.27;757.47675_10.27
0;612.33215;10.28;612.33215_10.28
0;1091.61292;10.28;1091.61292_10.28
0;500.2793;10.3;500.2793_10.3
0;632.31982;10.32;632.31982_10.32
0;1019.61255;10.32;1019.61255_10.32
0;541.33533;10.35;541.33533_10.35
0;530.30273;10.36;530.30273_10.36
0;540.33179;10.36;540.33179_10.36
0;1035.66504;10.36;1035.66504_10.36
0;612.26172;10.37;612.26172_10.37
0;552.33173;10.38;552.33173_10.38
0;591.35095;10.38;591.35095_10.38
0;452.27896;10.39;452.27896_10.39
0;614.34778;10.43;614.34778_10.43
0;526.29468;10.45;526.29468_10.45
0;1025.63574;10.47;1025.63574_10.47
0;530.30157;10.49;530.30157_10.49
0;566.34711;10.49;566.34711_10.49
0;608.31976;10.51;608.31976_10.51
0;609.3241;10.51;609.3241_10.51
0;478.29474;10.52;478.29474_10.52
0;614.3479;10.53;614.3479_10.53
0;526.29529;10.54;526.29529_10.54
0;681.29889;10.56;681.29889_10.56
0;702.32257;10.62;702.32257_10.62
0;635.33807;10.64;635.33807_10.64
0;299.25958;10.65;299.25958_10.65
0;339.23312;10.65;339.23312_10.65
0;297.24451;10.66;297.24451_10.66
0;616.36328;10.67;616.36328_10.67
0;528.31085;10.68;528.31085_10.68
0;327.12778;10.69;327.12778_10.69
0;285.24493;10.74;285.24493_10.74
0;550.35242;10.78;550.35242_10.78
0;890.63007;10.89;890.63007_10.89
0;327.23349;10.9;327.23349_10.9
0;367.26453;10.9;367.26453_10.9
0;480.30896;10.91;480.30896_10.91
0;1003.67566;10.91;1003.67566_10.91
0;558.33423;10.92;558.33423_10.92
0;508.34055;10.93;508.34055_10.93
0;299.2594;10.94;299.2594_10.94
0;303.23346;10.94;303.23346_10.94
0;704.3385;10.94;704.3385_10.94
0;822.62537;10.95;822.62537_10.95
0;537.41766;11.05;537.41766_11.05
0;582.37933;11.1;582.37933_11.1
0;329.24954;11.11;329.24954_11.11
0;397.23688;11.11;397.23688_11.11
0;661.52625;11.11;661.52625_11.11
0;594.39673;11.12;594.39673_11.12
0;442.16724;11.14;442.16724_11.14
0;445.33325;11.14;445.33325_11.14
0;355.1582;11.15;355.1582_11.15
0;371.15247;11.16;371.15247_11.16
0;390.12717;11.16;390.12717_11.16
0;554.38403;11.18;554.38403_11.18
0;327.25494;11.24;327.25494_11.24
0;369.17499;11.38;369.17499_11.38
0;573.45355;11.53;573.45355_11.53
0;461.14673;11.6;461.14673_11.6
0;399.18423;11.61;399.18423_11.61
0;564.34521;11.63;564.34521_11.63
0;703.57373;11.64;703.57373_11.64
0;591.39172;11.71;591.39172_11.71
0;691.50525;11.75;691.50525_11.75
0;566.38062;11.83;566.38062_11.83
0;605.4071;11.84;605.4071_11.84
0;717.52026;11.86;717.52026_11.86
0;523.33142;11.97;523.33142_11.97
0;411.22327;12.12;411.22327_12.12
0;719.5365;12.21;719.5365_12.21
0;881.52747;12.32;881.52747_12.32
0;774.53107;12.55;774.53107_12.55
0;566.3808;12.66;566.3808_12.66
0;824.54694;12.7;824.54694_12.7
0;747.56757;12.77;747.56757_12.77
0;826.56238;12.8;826.56238_12.8
0;773.58325;12.92;773.58325_12.92
0;850.5614;12.94;850.5614_12.94
0;553.49542;12.96;553.49542_12.96
0;918.5498;12.98;918.5498_12.98
0;776.54614;12.99;776.54614_12.99
0;826.56213;13.03;826.56213_13.03
0;802.56183;13.14;802.56183_13.14
0;566.38068;13.25;566.38068_13.25
0;852.57758;13.32;852.57758_13.32
0;810.56744;13.39;810.56744_13.39
0;880.57117;13.51;880.57117_13.51
0;812.58398;13.62;812.58398_13.62
0;486.88278;15.36;486.88278_15.36
0;160.97591;15.39;160.97591_15.39
0;174.95563;15.4;174.95563_15.4
0;246.98085;15.46;246.98085_15.46
0;262.99188;15.46;262.99188_15.46
0;280.9845;15.46;280.9845_15.46
0;318.9819;15.46;318.9819_15.46
0;325.1839;15.46;325.1839_15.46
0;426.9827;15.46;426.9827_15.46
0;166.99382;15.47;166.99382_15.47
0;191.94601;15.47;191.94601_15.47
0;212.97914;15.47;212.97914_15.47
0;218.98618;15.47;218.98618_15.47
0;240.97421;15.47;240.97421_15.47
0;242.98555;15.47;242.98555_15.47
0;250.99577;15.47;250.99577_15.47
0;276.99115;15.47;276.99115_15.47
0;300.99017;15.47;300.99017_15.47
0;168.98969;15.48;168.98969_15.48
0;180.9883;15.48;180.9883_15.48
0;196.98495;15.48;196.98495_15.48
0;208.98409;15.48;208.98409_15.48
0;244.9857;15.48;244.9857_15.48
0;246.8864;15.48;246.8864_15.48
0;172.86682;15.49;172.86682_15.49
0;439.68253;15.49;439.68253_15.49
0;441.68256;15.49;441.68256_15.49
0;130.9911;15.5;130.9911_15.5
0;134.8938;15.5;134.8938_15.5
0;158.84619;15.5;158.84619_15.5
0;162.98192;15.5;162.98192_15.5
0;170.86993;15.5;170.86993_15.5
0;194.98843;15.5;194.98843_15.5
0;203.79869;15.5;203.79869_15.5
0;130.94305;15.51;130.94305_15.51
0;180.89919;15.51;180.89919_15.51
0;201.88921;15.51;201.88921_15.51
0;207.96756;15.51;207.96756_15.51
0;432.58249;15.51;432.58249_15.51
0;144.99112;15.52;144.99112_15.52
0;168.94873;15.52;168.94873_15.52
0;192.99313;15.52;192.99313_15.52
0;207.83716;15.52;207.83716_15.52
0;418.67239;15.52;418.67239_15.52
0;211.91782;15.53;211.91782_15.53
0;224.82741;15.53;224.82741_15.53
0;297.73312;15.53;297.73312_15.53
0;213.91516;15.54;213.91516_15.54
0;221.94749;15.54;221.94749_15.54
0;219.95084;15.55;219.95084_15.55
0;193.95117;15.56;193.95117_15.56
0;456.57889;15.56;456.57889_15.56
0;589.44958;15.57;589.44958_15.57
0;637.39478;15.58;637.39478_15.58
0;221.94661;15.6;221.94661_15.6
1;538.75378;0.49;538.75378_0.49
1;540.7511;0.49;540.7511_0.49
1;542.74847;0.49;542.74847_0.49
1;600.70642;0.49;600.70642_0.49
1;610.73572;0.49;610.73572_0.49
1;462.73477;0.5;462.73477_0.5
1;464.73166;0.5;464.73166_0.5
1;470.76648;0.5;470.76648_0.5
1;472.76334;0.5;472.76334_0.5
1;474.76053;0.5;474.76053_0.5
1;520.69354;0.5;520.69354_0.5
1;522.69037;0.5;522.69037_0.5
1;530.72198;0.5;530.72198_0.5
1;532.71942;0.5;532.71942_0.5
1;578.65283;0.5;578.65283_0.5
1;580.64978;0.5;580.64978_0.5
1;588.6814;0.5;588.6814_0.5
1;590.67786;0.5;590.67786_0.5
1;598.70966;0.5;598.70966_0.5
1;440.68024;0.51;440.68024_0.51
1;442.67743;0.51;442.67743_0.51
1;444.67453;0.51;444.67453_0.51
1;446.67148;0.51;446.67148_0.51
1;448.66837;0.51;448.66837_0.51
1;498.63904;0.51;498.63904_0.51
1;500.63626;0.51;500.63626_0.51
1;502.6333;0.51;502.6333_0.51
1;504.63043;0.51;504.63043_0.51
1;506.62665;0.51;506.62665_0.51
1;556.59753;0.51;556.59753_0.51
1;558.59479;0.51;558.59479_0.51
1;560.59143;0.51;560.59143_0.51
1;562.58844;0.51;562.58844_0.51
1;564.58551;0.51;564.58551_0.51
1;566.58301;0.51;566.58301_0.51
1;616.55347;0.51;616.55347_0.51
1;618.55072;0.51;618.55072_0.51
1;620.54779;0.51;620.54779_0.51
1;622.54449;0.51;622.54449_0.51
1;624.54126;0.51;624.54126_0.51
1;674.51227;0.51;674.51227_0.51
1;676.50964;0.51;676.50964_0.51
1;678.50641;0.51;678.50641_0.51
1;680.50342;0.51;680.50342_0.51
1;792.42767;0.51;792.42767_0.51
1;794.42426;0.51;794.42426_0.51
1;796.4209;0.51;796.4209_0.51
2;482.79233;0.46;482.79233_0.46
2;716.84167;0.48;716.84167_0.48
2;676.72583;0.49;676.72583_0.49
2;686.75507;0.49;686.75507_0.49
2;696.78363;0.49;696.78363_0.49
2;276.83319;0.5;276.83319_0.5
2;278.8302;0.5;278.8302_0.5
2;280.82727;0.5;280.82727_0.5
2;282.82437;0.5;282.82437_0.5
2;334.79211;0.5;334.79211_0.5
2;336.78912;0.5;336.78912_0.5
2;338.7858;0.5;338.7858_0.5
2;426.83041;0.5;426.83041_0.5
2;630.57538;0.5;630.57538_0.5
2;658.66547;0.5;658.66547_0.5
2;324.76328;0.51;324.76328_0.51
2;326.76031;0.51;326.76031_0.51
2;328.75726;0.51;328.75726_0.51
2;330.75436;0.51;330.75436_0.51
2;332.75134;0.51;332.75134_0.51
2;340.78293;0.51;340.78293_0.51
2;382.7218;0.51;382.7218_0.51
2;384.71881;0.51;384.71881_0.51
2;386.71588;0.51;386.71588_0.51
2;388.71283;0.51;388.71283_0.51
2;390.70969;0.51;390.70969_0.51
2;626.53833;0.51;626.53833_0.51
2;628.5351;0.51;628.5351_0.51
2;484.79095;0.76;484.79095_0.76
3;264.93491;0.49;264.93491_0.49
3;348.89658;0.49;348.89658_0.49
3;416.884;0.49;416.884_0.49
3;484.87149;0.49;484.87149_0.49
3;552.85931;0.49;552.85931_0.49
3;568.83331;0.49;568.83331_0.49
3;636.82092;0.49;636.82092_0.49
3;704.80945;0.49;704.80945_0.49
3;772.79767;0.49;772.79767_0.49
3;840.7854;0.49;840.7854_0.49
3;908.77277;0.49;908.77277_0.49
3;128.95877;0.5;128.95877_0.5
3;196.94679;0.5;196.94679_0.5
3;280.90887;0.5;280.90887_0.5
3;554.85724;0.5;554.85724_0.5
3;722.82935;0.5;722.82935_0.5
3;764.81128;0.5;764.81128_0.5
3;774.79626;0.5;774.79626_0.5
3;798.80481;0.5;798.80481_0.5
3;814.77728;0.5;814.77728_0.5
3;842.78522;0.5;842.78522_0.5
3;866.79163;0.5;866.79163_0.5
3;882.76581;0.5;882.76581_0.5
3;950.75598;0.5;950.75598_0.5
3;976.75885;0.5;976.75885_0.5
4;308.78137;0.5;308.78137_0.5
4;310.77859;0.5;310.77859_0.5
4;742.40363;0.5;742.40363_0.5
4;316.72311;0.51;316.72311_0.51
4;374.6825;0.51;374.6825_0.51
4;376.67957;0.51;376.67957_0.51
4;432.64108;0.51;432.64108_0.51
4;434.63818;0.51;434.63818_0.51
4;436.63556;0.51;436.63556_0.51
4;490.60004;0.51;490.60004_0.51
4;492.59702;0.51;492.59702_0.51
4;494.59415;0.51;494.59415_0.51
4;548.55853;0.51;548.55853_0.51
4;550.55585;0.51;550.55585_0.51
4;552.5528;0.51;552.5528_0.51
4;554.54968;0.51;554.54968_0.51
4;624.48895;0.51;624.48895_0.51
4;626.48584;0.51;626.48584_0.51
4;740.40588;0.51;740.40588_0.51
5;424.83386;0.49;424.83386_0.49
5;480.79535;0.49;480.79535_0.49
5;490.82425;0.49;490.82425_0.49
5;492.82129;0.49;492.82129_0.49
5;548.78314;0.49;548.78314_0.49
5;550.78003;0.49;550.78003_0.49
5;558.81165;0.49;558.81165_0.49
5;560.80878;0.49;560.80878_0.49
5;606.74176;0.49;606.74176_0.49
5;608.73895;0.49;608.73895_0.49
5;616.77014;0.49;616.77014_0.49
5;618.76727;0.49;618.76727_0.49
5;626.79999;0.49;626.79999_0.49
5;628.79639;0.49;628.79639_0.49
5;508.62378;0.51;508.62378_0.51
6;298.75272;0.51;298.75272_0.51
6;300.74985;0.51;300.74985_0.51
6;302.74695;0.51;302.74695_0.51
6;356.71118;0.51;356.71118_0.51
6;358.70822;0.51;358.70822_0.51
6;360.70514;0.51;360.70514_0.51
6;414.6694;0.51;414.6694_0.51
6;416.66678;0.51;416.66678_0.51
6;418.6636;0.51;418.6636_0.51
6;420.66129;0.51;420.66129_0.51
6;724.4317;0.51;724.4317_0.51
6;726.42883;0.51;726.42883_0.51
6;728.42578;0.51;728.42578_0.51
7;364.87793;0.49;364.87793_0.49
7;366.87512;0.49;366.87512_0.49
7;286.86185;0.5;286.86185_0.5
7;288.8591;0.5;288.8591_0.5
7;296.89087;0.5;296.89087_0.5
7;298.8877;0.5;298.8877_0.5
7;354.84967;0.5;354.84967_0.5
7;356.84671;0.5;356.84671_0.5
7;214.83632;0.51;214.83632_0.51
7;274.79276;0.51;274.79276_0.51
7;150.88589;0.52;150.88589_0.52
7;152.88295;0.52;152.88295_0.52
7;154.87985;0.52;154.87985_0.52
8;858.32062;0.5;858.32062_0.5
8;860.31665;0.5;860.31665_0.5
8;304.74374;0.51;304.74374_0.51
8;362.70215;0.51;362.70215_0.51
8;606.5177;0.51;606.5177_0.51
8;608.51447;0.51;608.51447_0.51
8;610.51172;0.51;610.51172_0.51
8;612.50885;0.51;612.50885_0.51
8;666.47351;0.51;666.47351_0.51
8;668.47052;0.51;668.47052_0.51
8;670.46735;0.51;670.46735_0.51
8;856.3205;0.51;856.3205_0.51
9;524.85065;0.46;524.85065_0.46
9;592.83856;0.46;592.83856_0.46
9;394.89294;0.47;394.89294_0.47
9;462.88071;0.47;462.88071_0.47
9;530.8681;0.47;530.8681_0.47
9;660.82745;0.47;660.82745_0.47
9;682.81653;0.47;682.81653_0.47
9;728.81372;0.47;728.81372_0.47
9;750.8045;0.47;750.8045_0.47
9;796.80212;0.47;796.80212_0.47
9;818.79272;0.48;818.79272_0.48
10;622.89343;0.48;622.89343_0.48
10;690.88055;0.48;690.88055_0.48
10;758.86914;0.48;758.86914_0.48
10;826.85638;0.48;826.85638_0.48
10;860.85046;0.48;860.85046_0.48
10;928.83771;0.48;928.83771_0.48
10;936.8255;0.48;936.8255_0.48
10;970.81848;0.48;970.81848_0.48
10;996.82538;0.48;996.82538_0.48
10;1004.81158;0.48;1004.81158_0.48
10;1002.15039;0.49;1002.15039_0.49
11;520.91101;0.48;520.91101_0.48
11;588.89886;0.48;588.89886_0.48
11;656.88678;0.48;656.88678_0.48
11;724.87476;0.48;724.87476_0.48
11;766.85559;0.48;766.85559_0.48
11;792.86298;0.48;792.86298_0.48
11;800.84979;0.48;800.84979_0.48
11;834.84283;0.48;834.84283_0.48
11;868.83813;0.48;868.83813_0.48
11;902.83142;0.48;902.83142_0.48
11;658.89227;0.49;658.89227_0.49
12;244.87689;0.49;244.87689_0.49
12;314.86234;0.49;314.86234_0.49
12;312.8652;0.5;312.8652_0.5
12;224.81934;0.51;224.81934_0.51
12;226.81654;0.51;226.81654_0.51
12;228.8136;0.51;228.8136_0.51
12;282.77829;0.51;282.77829_0.51
12;286.77243;0.51;286.77243_0.51
12;288.76962;0.51;288.76962_0.51
12;284.77536;0.52;284.77536_0.52
13;688.83533;0.48;688.83533_0.48
13;332.9227;0.49;332.9227_0.49
13;620.84741;0.49;620.84741_0.49
13;334.91986;0.5;334.91986_0.5
13;622.84534;0.5;622.84534_0.5
13;690.83441;0.5;690.83441_0.5
13;832.79822;0.5;832.79822_0.5
13;900.78326;0.5;900.78326_0.5
13;934.77991;0.5;934.77991_0.5
14;304.91479;0.45;304.91479_0.45
14;372.90219;0.46;372.90219_0.46
14;440.8895;0.46;440.8895_0.46
14;508.87692;0.46;508.87692_0.46
14;576.86481;0.46;576.86481_0.46
14;644.8526;0.46;644.8526_0.46
14;712.84045;0.47;712.84045_0.47
14;870.80737;0.47;870.80737_0.47
14;291.08398;0.6;291.08398_0.6
15;174.95578;0.45;174.95578_0.45
15;178.94865;0.45;178.94865_0.45
15;242.94386;0.47;242.94386_0.47
15;310.93185;0.47;310.93185_0.47
15;378.91904;0.47;378.91904_0.47
15;598.85547;0.47;598.85547_0.47
15;666.84369;0.47;666.84369_0.47
15;734.83154;0.47;734.83154_0.47
15;802.82007;0.47;802.82007_0.47
16;228.90289;0.5;228.90289_0.5
16;230.89999;0.5;230.89999_0.5
16;212.83926;0.51;212.83926_0.51
16;272.79553;0.51;272.79553_0.51
16;208.84512;0.52;208.84512_0.52
16;210.84219;0.52;210.84219_0.52
16;266.80447;0.52;266.80447_0.52
16;268.80145;0.52;268.80145_0.52
16;270.79849;0.52;270.79849_0.52
17;164.83539;15.5;164.83539_15.5
17;193.81544;15.51;193.81544_15.51
17;195.81029;15.51;195.81029_15.51
17;197.80702;15.51;197.80702_15.51
17;199.80495;15.51;199.80495_15.51
17;160.84149;15.52;160.84149_15.52
17;162.83795;15.52;162.83795_15.52
17;201.80208;15.52;201.80208_15.52
18;400.91006;0.48;400.91006_0.48
18;468.89749;0.48;468.89749_0.48
18;536.88531;0.48;536.88531_0.48
18;604.87311;0.48;604.87311_0.48
18;672.86066;0.48;672.86066_0.48
18;470.89514;0.49;470.89514_0.49
18;538.88489;0.5;538.88489_0.5
18;606.8728;0.5;606.8728_0.5
19;516.60992;0.51;516.60992_0.51
19;518.60712;0.51;518.60712_0.51
19;520.60419;0.51;520.60419_0.51
19;522.6015;0.51;522.6015_0.51
19;574.56879;0.51;574.56879_0.51
19;576.56592;0.51;576.56592_0.51
19;578.56293;0.51;578.56293_0.51
19;580.55988;0.51;580.55988_0.51
20;572.57172;0.51;572.57172_0.51
20;632.52808;0.51;632.52808_0.51
20;634.52454;0.51;634.52454_0.51
20;636.52191;0.51;636.52191_0.51
20;638.51849;0.51;638.51849_0.51
20;692.48395;0.51;692.48395_0.51
20;694.48047;0.51;694.48047_0.51
20;696.47748;0.51;696.47748_0.51
21;254.90572;0.49;254.90572_0.49
21;256.90329;0.49;256.90329_0.49
21;322.89395;0.49;322.89395_0.49
21;324.89084;0.49;324.89084_0.49
21;406.85474;0.49;406.85474_0.49
21;474.84198;0.49;474.84198_0.49
21;476.83951;0.49;476.83951_0.49
21;542.82965;0.49;542.82965_0.49
22;392.75055;0.5;392.75055_0.5
22;394.74744;0.5;394.74744_0.5
22;450.70944;0.5;450.70944_0.5
22;452.70605;0.5;452.70605_0.5
22;454.70306;0.5;454.70306_0.5
22;456.70004;0.5;456.70004_0.5
22;396.74448;0.51;396.74448_0.51
22;398.74121;0.51;398.74121_0.51
23;344.8205;0.5;344.8205_0.5
23;346.8179;0.5;346.8179_0.5
23;348.81482;0.5;348.81482_0.5
23;402.7793;0.5;402.7793_0.5
23;404.77637;0.5;404.77637_0.5
23;412.80801;0.5;412.80801_0.5
23;414.80511;0.5;414.80511_0.5
23;416.80197;0.5;416.80197_0.5
24;181.9659;0.52;181.9659_0.52
24;183.96278;0.52;183.96278_0.52
24;241.92209;0.52;241.92209_0.52
24;297.88412;0.52;297.88412_0.52
24;299.8811;0.52;299.8811_0.52
24;355.84283;0.52;355.84283_0.52
24;357.83917;0.52;357.83917_0.52
24;124.00651;0.53;124.00651_0.53
25;592.32483;10.68;592.32483_10.68
25;524.3371;10.69;524.3371_10.69
25;592.36365;10.75;592.36365_10.75
25;526.35278;10.77;526.35278_10.77
25;552.36847;10.86;552.36847_10.86
25;620.35559;10.87;620.35559_10.87
25;1091.72827;10.92;1091.72827_10.92
26;446.90665;0.47;446.90665_0.47
26;514.89398;0.47;514.89398_0.47
26;582.88177;0.47;582.88177_0.47
26;650.86963;0.47;650.86963_0.47
26;718.85785;0.47;718.85785_0.47
26;786.8454;0.47;786.8454_0.47
26;854.83258;0.47;854.83258_0.47
27;460.73807;0.5;460.73807_0.5
27;510.66455;0.5;510.66455_0.5
27;512.6618;0.5;512.6618_0.5
27;514.65887;0.5;514.65887_0.5
27;568.62372;0.5;568.62372_0.5
27;570.6203;0.5;570.6203_0.5
27;572.61761;0.5;572.61761_0.5
28;230.98686;15.47;230.98686_15.47
28;268.98431;15.47;268.98431_15.47
28;286.97604;15.47;286.97604_15.47
28;294.98245;15.47;294.98245_15.47
28;344.98016;15.47;344.98016_15.47
28;236.9799;15.48;236.9799_15.48
29;524.27911;10.29;524.27911_10.29
29;588.3316;10.29;588.3316_10.29
29;592.2666;10.29;592.2666_10.29
29;656.3197;10.29;656.3197_10.29
29;1067.61267;10.3;1067.61267_10.3
29;1043.61267;10.31;1043.61267_10.31
30;756.82318;0.48;756.82318_0.48
30;824.81061;0.48;824.81061_0.48
30;758.82202;0.49;758.82202_0.49
30;826.81183;0.49;826.81183_0.49
30;858.8045;0.49;858.8045_0.49
30;790.81744;0.5;790.81744_0.5
31;774.84308;0.48;774.84308_0.48
31;876.82446;0.48;876.82446_0.48
31;944.81256;0.48;944.81256_0.48
31;810.83636;0.49;810.83636_0.49
31;842.83063;0.49;842.83063_0.49
31;910.81763;0.49;910.81763_0.49
32;272.95963;0.45;272.95963_0.45
32;274.95697;0.45;274.95697_0.45
32;278.90799;0.45;278.90799_0.45
32;288.93713;0.45;288.93713_0.45
32;290.93427;0.45;290.93427_0.45
32;532.87567;0.45;532.87567_0.45
33;158.97806;0.45;158.97806_0.45
33;160.97571;0.45;160.97571_0.45
33;560.88745;0.46;560.88745_0.46
33;628.87451;0.46;628.87451_0.46
33;498.91708;0.47;498.91708_0.47
33;566.90448;0.47;566.90448_0.47
34;792.79333;0.44;792.79333_0.44
34;418.89532;0.45;418.89532_0.45
34;422.88779;0.45;422.88779_0.45
34;548.85345;0.45;548.85345_0.45
34;616.84167;0.46;616.84167_0.46
34;684.82843;0.46;684.82843_0.46
35;499.85165;0.45;499.85165_0.45
35;564.83142;0.45;564.83142_0.45
35;694.79004;0.45;694.79004_0.45
35;824.74835;0.45;824.74835_0.45
35;502.86032;0.46;502.86032_0.46
35;768.79413;0.46;768.79413_0.46
36;292.80734;0.5;292.80734_0.5
36;294.80432;0.5;294.80432_0.5
36;296.80154;0.5;296.80154_0.5
36;302.83612;0.5;302.83612_0.5
36;304.83322;0.5;304.83322_0.5
36;306.83038;0.5;306.83038_0.5
37;316.94852;0.48;316.94852_0.48
37;384.936;0.48;384.936_0.48
37;452.92337;0.48;452.92337_0.48
37;698.86749;0.48;698.86749_0.48
37;732.86121;0.48;732.86121_0.48
37;664.87396;0.49;664.87396_0.49
38;262.9765;0.52;262.9765_0.52
38;318.93826;0.52;318.93826_0.52
38;320.93497;0.52;320.93497_0.52
38;436.85217;0.52;436.85217_0.52
38;494.81134;0.52;494.81134_0.52
38;496.80841;0.52;496.80841_0.52
39;308.91678;0.49;308.91678_0.49
39;376.90359;0.49;376.90359_0.49
39;442.8942;0.49;442.8942_0.49
39;646.85706;0.49;646.85706_0.49
39;306.91968;0.5;306.91968_0.5
39;374.90692;0.5;374.90692_0.5
40;444.8909;0.49;444.8909_0.49
40;510.88177;0.49;510.88177_0.49
40;512.87836;0.49;512.87836_0.49
40;578.86938;0.49;578.86938_0.49
40;580.86658;0.49;580.86658_0.49
40;648.85559;0.49;648.85559_0.49
41;164.92639;15.47;164.92639_15.47
41;166.92422;15.48;166.92422_15.48
41;154.8974;15.49;154.8974_15.49
41;156.89493;15.49;156.89493_15.49
41;181.91756;15.5;181.91756_15.5
42;567.33984;10.29;567.33984_10.29
42;554.30292;10.31;554.30292_10.31
42;564.33136;10.31;564.33136_10.31
42;565.33551;10.31;565.33551_10.31
42;1083.66528;10.31;1083.66528_10.31
43;637.14252;9.11;637.14252_9.11
43;701.15515;9.21;701.15515_9.21
43;765.16785;9.29;765.16785_9.29
43;829.18048;9.36;829.18048_9.36
43;765.16791;9.49;765.16791_9.49
44;892.79895;0.48;892.79895_0.48
44;960.78613;0.48;960.78613_0.48
44;680.84802;0.49;680.84802_0.49
44;748.83667;0.49;748.83667_0.49
44;926.79089;0.49;926.79089_0.49
45;410.72171;0.5;410.72171_0.5
45;412.71875;0.5;412.71875_0.5
45;468.68021;0.5;468.68021_0.5
45;470.67749;0.5;470.67749_0.5
45;472.67447;0.5;472.67447_0.5
46;690.48602;0.51;690.48602_0.51
46;808.4007;0.51;808.4007_0.51
46;810.39813;0.51;810.39813_0.51
46;812.39532;0.51;812.39532_0.51
46;814.3924;0.51;814.3924_0.51
47;566.75452;0.49;566.75452_0.49
47;574.78564;0.49;574.78564_0.49
47;576.78357;0.49;576.78357_0.49
47;634.74158;0.49;634.74158_0.49
47;644.77106;0.49;644.77106_0.49
48;458.6514;0.51;458.6514_0.51
48;460.64841;0.51;460.64841_0.51
48;462.64569;0.51;462.64569_0.51
48;514.61285;0.51;514.61285_0.51
48;582.55707;0.51;582.55707_0.51
49;273.0737;0.59;273.0737_0.59
49;583.17535;0.6;583.17535_0.6
49;605.15674;0.6;605.15674_0.6
49;897.24969;0.6;897.24969_0.6
49;919.23059;0.6;919.23059_0.6
50;621.82202;0.44;621.82202_0.44
50;680.81067;0.44;680.81067_0.44
50;491.86356;0.45;491.86356_0.45
50;556.84259;0.45;556.84259_0.45
50;808.77106;0.45;808.77106_0.45
51;368.737;0.5;368.737_0.5
51;426.69586;0.5;426.69586_0.5
51;428.69287;0.5;428.69287_0.5
51;484.65399;0.5;484.65399_0.5
51;486.65149;0.5;486.65149_0.5
52;396.82593;0.49;396.82593_0.49
52;464.81335;0.49;464.81335_0.49
52;532.80127;0.49;532.80127_0.49
52;398.82312;0.5;398.82312_0.5
52;466.81055;0.5;466.81055_0.5
53;474.62537;0.51;474.62537_0.51
53;476.62265;0.51;476.62265_0.51
53;478.61942;0.51;478.61942_0.51
53;532.58411;0.51;532.58411_0.51
53;538.57532;0.51;538.57532_0.51
54;139.25356;0.7;139.25356_0.7
54;167.02031;0.7;167.02031_0.7
54;335.04974;0.7;335.04974_0.7
54;183.01573;0.71;183.01573_0.71
54;167.02069;0.97;167.02069_0.97
55;409.65646;15.52;409.65646_15.52
55;411.65344;15.52;411.65344_15.52
55;413.64908;15.52;413.64908_15.52
55;415.64713;15.53;415.64713_15.53
56;239.76006;15.52;239.76006_15.52
56;241.75847;15.52;241.75847_15.52
56;243.75488;15.52;243.75488_15.52
56;245.75237;15.55;245.75237_15.55
57;478.29425;10.11;478.29425_10.11
57;538.31616;10.11;538.31616_10.11
57;606.30383;10.12;606.30383_10.12
57;1031.63428;10.12;1031.63428_10.12
58;271.22827;10.49;271.22827_10.49
58;271.22852;10.66;271.22852_10.66
58;299.25998;10.76;299.25998_10.76
58;297.24435;10.79;297.24435_10.79
59;676.30713;10.38;676.30713_10.38
59;480.30777;10.49;480.30777_10.49
59;567.35034;10.49;567.35034_10.49
59;634.33484;10.61;634.33484_10.61
60;995.61267;10.32;995.61267_10.32
60;971.61273;10.33;971.61273_10.33
60;1059.66553;10.36;1059.66553_10.36
60;682.33563;10.43;682.33563_10.43
61;1062.68457;10.52;1062.68457_10.52
61;1077.66724;10.59;1077.66724_10.59
61;556.31873;10.61;556.31873_10.61
61;1087.69641;10.61;1087.69641_10.61
62;766.56238;10.5;766.56238_10.5
62;1085.68079;10.5;1085.68079_10.5
62;502.29483;10.51;502.29483_10.51
62;594.34235;10.76;594.34235_10.76
63;564.33179;10.18;564.33179_10.18
63;632.31946;10.19;632.31946_10.19
63;476.27872;10.31;476.27872_10.31
63;504.30975;10.32;504.30975_10.32
64;662.4223;11.24;662.4223_11.24
64;381.17456;11.25;381.17456_11.25
64;646.42792;11.25;646.42792_11.25
64;416.14337;11.28;416.14337_11.28
65;506.26678;9.24;506.26678_9.24
65;484.28372;9.25;484.28372_9.25
65;516.29559;9.27;516.29559_9.27
65;448.30707;9.28;448.30707_9.28
66;407.20801;6.54;407.20801_6.54
66;329.17664;6.78;329.17664_6.78
66;395.1636;6.79;395.1636_6.79
66;405.19244;6.79;405.19244_6.79
67;789.29688;6.4;789.29688_6.4
67;767.31537;6.42;767.31537_6.42
67;451.14111;6.44;451.14111_6.44
67;385.14944;6.48;385.14944_6.48
68;579.27966;8.9;579.27966_8.9
68;493.28162;8.94;493.28162_8.94
68;495.29672;9.03;495.29672_9.03
68;563.28491;9.04;563.28491_9.04
69;306.86911;0.11;306.86911_0.11
69;308.86435;0.11;308.86435_0.11
69;336.85928;0.11;336.85928_0.11
69;146.93762;0.12;146.93762_0.12
70;247.85062;0.65;247.85062_0.65
70;249.84781;0.65;249.84781_0.65
70;243.96822;0.7;243.96822_0.7
70;231.96748;0.71;231.96748_0.71
71;195.81067;0.57;195.81067_0.57
71;197.80754;0.57;197.80754_0.57
71;199.80453;0.57;199.80453_0.57
71;201.80157;0.57;201.80157_0.57
72;143.03409;0.55;143.03409_0.55
72;179.05554;0.55;179.05554_0.55
72;225.06146;0.55;225.06146_0.55
72;161.04489;0.56;161.04489_0.56
73;816.82404;0.49;816.82404_0.49
73;884.81091;0.49;884.81091_0.49
73;1028.7738;0.49;1028.7738_0.49
73;1096.75989;0.49;1096.75989_0.49
74;740.84869;0.48;740.84869_0.48
74;808.83649;0.48;808.83649_0.48
74;706.8548;0.49;706.8548_0.49
74;742.8501;0.49;742.8501_0.49
75;986.79285;0.49;986.79285_0.49
75;1020.78406;0.49;1020.78406_0.49
75;1054.7804;0.49;1054.7804_0.49
75;1088.77344;0.49;1088.77344_0.49
76;526.85614;0.49;526.85614_0.49
76;528.85388;0.49;528.85388_0.49
76;594.84381;0.49;594.84381_0.49
76;596.84149;0.49;596.84149_0.49
77;390.88141;0.49;390.88141_0.49
77;392.87833;0.49;392.87833_0.49
77;458.86865;0.49;458.86865_0.49
77;460.86526;0.49;460.86526_0.49
78;226.9662;0.47;226.9662_0.47
78;294.95413;0.47;294.95413_0.47
78;362.94177;0.47;362.94177_0.47
78;430.92923;0.47;430.92923_0.47
79;370.82352;0.49;370.82352_0.49
79;372.82043;0.49;372.82043_0.49
79;438.8107;0.49;438.8107_0.49
79;440.80795;0.49;440.80795_0.49
80;398.6955;0.51;398.6955_0.51
80;400.69272;0.51;400.69272_0.51
80;402.68967;0.51;402.68967_0.51
80;404.68686;0.51;404.68686_0.51
81;340.73706;0.51;340.73706_0.51
81;342.73413;0.51;342.73413_0.51
81;344.7312;0.51;344.7312_0.51
81;346.72821;0.51;346.72821_0.51
82;830.36591;0.5;830.36591_0.5
82;824.37573;0.51;824.37573_0.51
82;826.37231;0.51;826.37231_0.51
82;828.36945;0.51;828.36945_0.51
83;434.87268;0.45;434.87268_0.45
83;438.86566;0.46;438.86566_0.46
83;632.81897;0.46;632.81897_0.46
83;700.80676;0.46;700.80676_0.46
84;840.34924;0.5;840.34924_0.5
84;842.3465;0.51;842.3465_0.51
84;844.34277;0.51;844.34277_0.51
84;846.34015;0.51;846.34015_0.51
85;472.62799;0.51;472.62799_0.51
85;480.61652;0.51;480.61652_0.51
85;534.58124;0.51;534.58124_0.51
85;536.578;0.51;536.578_0.51
86;590.54285;0.51;590.54285_0.51
86;592.53992;0.51;592.53992_0.51
86;594.53729;0.51;594.53729_0.51
86;596.5343;0.51;596.5343_0.51
87;1012.79938;0.48;1012.79938_0.48
87;1080.78699;0.48;1080.78699_0.48
87;978.80353;0.49;978.80353_0.49
87;1046.79309;0.49;1046.79309_0.49
88;525.06018;0.69;525.06018_0.69
88;547.04242;0.69;547.04242_0.69
88;357.03186;0.7;357.03186_0.7
88;693.08881;0.7;693.08881_0.7
89;144.96649;0.65;144.96649_0.65
89;154.99539;0.65;154.99539_0.65
89;206.95813;0.67;206.95813_0.67
89;201.03746;0.71;201.03746_0.71
90;318.04636;0.69;318.04636_0.69
90;128.03438;0.7;128.03438_0.7
90;240.04912;0.7;240.04912_0.7
90;296.06439;0.7;296.06439_0.7
91;338.89365;3.59;338.89365_3.59
91;340.8905;3.59;340.8905_3.59
91;134.06007;3.6;134.06007_3.6
91;178.0509;3.6;178.0509_3.6
92;570.84833;15.35;570.84833_15.35
92;372.90247;15.38;372.90247_15.38
92;502.86096;15.38;502.86096_15.38
93;457.60001;15.54;457.60001_15.54
93;455.60284;15.55;455.60284_15.55
93;459.59738;15.55;459.59738_15.55
94;446.22955;10.04;446.22955_10.04
94;378.24228;10.05;378.24228_10.05
94;380.25818;10.22;380.25818_10.22
95;447.31247;9.78;447.31247_9.78
95;431.31769;9.85;431.31769_9.85
95;463.3078;9.86;463.3078_9.86
96;658.33514;10.38;658.33514_10.38
96;590.34772;10.39;590.34772_10.39
96;590.34741;10.5;590.34741_10.5
97;608.31915;10.36;608.31915_10.36
97;1036.66895;10.36;1036.66895_10.36
97;1061.68042;10.49;1061.68042_10.49
98;563.31982;10.03;563.31982_10.03
98;474.26358;10.04;474.26358_10.04
98;562.31592;10.04;562.31592_10.04
99;506.32355;10.61;506.32355_10.61
99;638.27728;10.61;638.27728_10.61
99;652.29297;10.62;652.29297_10.62
100;679.15302;8.68;679.15302_8.68
100;831.1593;8.73;831.1593_8.73
100;743.16595;8.79;743.16595_8.79
101;509.11737;8.85;509.11737_8.85
101;807.17877;8.9;807.17877_8.9
101;573.13007;8.99;573.13007_8.99
102;893.19257;9.61;893.19257_9.61
102;893.19305;9.68;893.19305_9.68
102;957.20593;9.72;957.20593_9.72
103;897.62292;9.26;897.62292_9.26
103;919.60474;9.27;919.60474_9.27
103;548.23315;9.28;548.23315_9.28
104;193.0865;7.68;193.0865_7.68
104;207.10223;7.75;207.10223_7.75
104;251.09254;7.75;251.09254_7.75
105;412.18808;5.89;412.18808_5.89
105;273.12524;5.91;273.12524_5.91
105;317.11487;5.93;317.11487_5.93
106;407.28101;8.63;407.28101_8.63
106;405.26508;8.9;405.26508_8.9
106;451.27081;8.93;451.27081_8.93
107;160.84138;0.54;160.84138_0.54
107;162.83839;0.54;162.83839_0.54
107;164.83545;0.54;164.83545_0.54
108;291.88428;0.45;291.88428_0.45
108;365.88455;0.45;365.88455_0.45
108;421.84229;0.45;421.84229_0.45
109;850.81793;0.49;850.81793_0.49
109;918.80511;0.49;918.80511_0.49
109;952.79944;0.49;952.79944_0.49
110;237.04922;0.6;237.04922_0.6
110;529.13989;0.6;529.13989_0.6
110;215.06758;0.61;215.06758_0.61
111;203.02039;0.52;203.02039_0.52
111;205.01755;0.52;205.01755_0.52
111;145.0612;0.53;145.0612_0.53
112;199.03738;0.6;199.03738_0.6
112;201.03442;0.6;201.03442_0.6
112;209.0663;0.61;209.0663_0.61
113;380.85257;0.49;380.85257_0.49
113;382.84964;0.49;382.84964_0.49
113;450.8371;0.49;450.8371_0.49
114;356.92484;0.46;356.92484_0.46
114;424.91217;0.46;424.91217_0.46
114;492.89972;0.47;492.89972_0.47
115;526.63873;0.5;526.63873_0.5
115;528.63562;0.5;528.63562_0.5
115;586.59473;0.5;586.59473_0.5
116;350.76602;0.5;350.76602_0.5
116;352.76318;0.5;352.76318_0.5
116;354.76041;0.5;354.76041_0.5
117;360.79468;0.5;360.79468_0.5
117;362.79169;0.5;362.79169_0.5
117;420.75079;0.5;420.75079_0.5
118;328.83871;0.49;328.83871_0.49
118;318.80981;0.5;318.80981_0.5
118;320.8071;0.5;320.8071_0.5
119;192.98811;0.56;192.98811_0.56
119;250.94725;0.56;250.94725_0.56
119;194.98517;0.57;194.98517_0.57
120;170.9438;0.49;170.9438_0.49
120;240.92911;0.49;240.92911_0.49
120;238.93201;0.5;238.93201_0.5
121;243.06232;0.7;243.06232_0.7
121;333.09433;0.7;333.09433_0.7
121;411.09082;0.7;411.09082_0.7
122;204.00441;0.53;204.00441_0.53
122;146.04518;0.54;146.04518_0.54
122;225.98618;0.54;225.98618_0.54
123;397.00369;3.81;397.00369_3.81
123;189.00198;3.84;189.00198_3.84
123;187.00644;3.85;187.00644_3.85
124;407.17322;2.92;407.17322_2.92
124;203.082;2.93;203.082_2.93
124;552.09552;3.01;552.09552_3.01
125;416.60782;15.52;416.60782_15.52
125;418.60684;15.52;418.60684_15.52
126;434.57761;15.5;434.57761_15.5
126;436.57773;15.52;436.57773_15.52
127;335.65179;15.58;335.65179_15.58
127;679.349;15.58;679.349_15.58
128;633.40009;15.58;633.40009_15.58
128;635.39752;15.58;635.39752_15.58
129;376.98505;15.46;376.98505_15.46
129;326.98904;15.47;326.98904_15.47
130;304.91379;15.4;304.91379_15.4
130;434.87277;15.4;434.87277_15.4
131;328.88281;15.43;328.88281_15.43
131;330.87653;15.44;330.87653_15.44
132;158.97813;15.37;158.97813_15.37
132;288.93759;15.39;288.93759_15.39
133;545.49963;15.57;545.49963_15.57
133;547.49738;15.57;547.49738_15.57
134;273.82861;15.53;273.82861_15.53
134;275.82483;15.53;275.82483_15.53
135;178.97733;15.54;178.97733_15.54
135;281.92712;15.55;281.92712_15.55
136;177.95607;15.54;177.95607_15.54
136;177.95665;15.59;177.95665_15.59
137;453.69916;15.49;453.69916_15.49
137;455.69577;15.49;455.69577_15.49
138;813.54004;12.32;813.54004_12.32
138;745.55212;12.33;745.55212_12.33
139;452.2789;10.5;452.2789_10.5
139;947.6123;10.5;947.6123_10.5
140;342.26559;10.51;342.26559_10.51
140;255.11465;10.73;255.11465_10.73
141;576.28802;10.01;576.28802_10.01
141;586.31635;10.02;586.31635_10.02
142;512.30017;9.94;512.30017_9.94
142;979.60248;9.95;979.60248_9.95
143;504.27103;10.67;504.27103_10.67
143;436.28339;10.69;436.28339_10.69
144;462.30008;10.78;462.30008_10.78
144;464.31558;11.08;464.31558_11.08
145;554.3476;10.72;554.3476_10.72
145;622.33533;10.72;622.33533_10.72
146;363.21008;10.9;363.21008_10.9
146;850.59845;10.91;850.59845_10.91
147;299.25946;11.09;299.25946_11.09
147;610.39148;11.16;610.39148_11.16
148;568.36261;10.81;568.36261_10.81
148;636.35022;10.81;636.35022_10.81
149;568.36267;10.91;568.36267_10.91
149;636.3501;10.92;636.3501_10.92
150;478.2944;10.61;478.2944_10.61
150;999.64386;10.61;999.64386_10.61
151;566.34711;10.6;566.34711_10.6
151;569.35535;10.61;569.35535_10.61
152;526.31653;10.23;526.31653_10.23
152;594.30414;10.25;594.30414_10.25
153;1035.66504;10.48;1035.66504_10.48
153;540.33136;10.49;540.33136_10.49
154;297.24518;10.17;297.24518_10.17
154;299.25928;10.21;299.25928_10.21
155;374.1337;11.15;374.1337_11.15
155;376.12881;11.15;376.12881_11.15
156;383.19;11.6;383.19_11.6
156;381.19614;11.62;381.19614_11.62
157;650.45892;11.6;650.45892_11.6
157;666.45416;11.61;666.45416_11.61
158;329.26965;11.61;329.26965_11.61
158;567.53668;11.61;567.53668_11.61
159;459.27386;9.87;459.27386_9.87
159;437.29166;9.88;437.29166_9.88
160;693.10565;8.46;693.10565_8.46
160;615.14044;8.51;615.14044_8.51
161;831.15991;9.05;831.15991_9.05
161;895.17297;9.14;895.17297_9.14
162;637.14258;9.35;637.14258_9.35
162;701.15521;9.42;701.15521_9.42
163;787.10358;9.21;787.10358_9.21
163;851.1167;9.29;851.1167_9.29
164;787.10376;9.44;787.10376_9.44
164;851.11633;9.5;851.11633_9.5
165;883.16412;9.68;883.16412_9.68
165;947.17719;9.7;947.17719_9.7
166;448.30756;8.29;448.30756_8.29
166;516.29572;8.31;516.29572_8.31
167;639.12152;8.29;639.12152_8.29
167;551.12799;8.3;551.12799_8.3
168;314.98901;7.72;314.98901_7.72
168;274.97583;7.76;274.97583_7.76
169;255.08781;5.61;255.08781_5.61
169;323.07553;5.61;323.07553_5.61
170;272.05463;4.85;272.05463_4.85
170;204.06645;4.89;204.06645_4.89
171;202.1082;5.11;202.1082_5.11
171;275.10434;5.29;275.10434_5.29
172;258.08823;6.96;258.08823_6.96
172;159.10201;7.08;159.10201_7.08
173;273.17154;7.64;273.17154_7.64
173;309.1478;7.64;309.1478_7.64
174;397.17908;6.98;397.17908_6.98
174;407.20816;7.04;407.20816_7.04
175;409.22382;7.02;409.22382_7.02
175;377.1976;7.2;377.1976_7.2
176;411.18478;6.93;411.18478_6.93
176;427.17984;7.08;427.17984_7.08
177;511.29199;7.53;511.29199_7.53
177;579.27985;7.54;579.27985_7.54
178;503.23004;7.5;503.23004_7.5
178;505.24533;7.55;505.24533_7.55
179;507.26068;7.14;507.26068_7.14
179;505.24515;7.22;505.24515_7.22
180;260.10754;7.52;260.10754_7.52
180;521.22198;7.52;521.22198_7.52
181;440.18698;7.98;440.18698_7.98
181;399.18488;8.15;399.18488_8.15
182;511.29193;8.21;511.29193_8.21
182;509.27655;8.41;509.27655_8.41
183;403.24954;8.32;403.24954_8.32
183;449.25522;8.32;449.25522_8.32
184;267.12451;8.86;267.12451_8.86
184;335.1124;8.86;335.1124_8.86
185;229.90176;1.44;229.90176_1.44
185;227.9046;1.46;227.9046_1.46
186;406.11401;0.69;406.11401_0.69
186;538.16577;0.69;538.16577_0.69
187;303.92142;0.54;303.92142_0.54
187;339.89807;0.54;339.89807_0.54
188;275.90652;0.45;275.90652_0.45
188;405.86441;0.45;405.86441_0.45
189;205.83943;0.58;205.83943_0.58
189;207.83643;0.58;207.83643_0.58
190;260.98065;0.53;260.98065_0.53
190;258.98273;0.54;258.98273_0.54
191;215.03268;0.54;215.03268_0.54
191;217.02959;0.54;217.02959_0.54
192;864.74652;0.49;864.74652_0.49
192;796.7583;0.5;796.7583_0.5
193;432.85779;0.49;432.85779_0.49
193;1076.69641;0.5;1076.69641_0.5
194;714.84216;0.49;714.84216_0.49
194;782.82922;0.49;782.82922_0.49
195;248.96074;0.48;248.96074_0.48
195;180.97263;0.49;180.97263_0.49
196;736.22723;0.58;736.22723_0.58
196;758.20911;0.58;758.20911_0.58
197;180.06631;0.7;180.06631_0.7
197;383.12296;0.7;383.12296_0.7
198;131.08188;0.54;131.08188_0.54
198;174.08769;0.54;174.08769_0.54
199;448.84009;0.49;448.84009_0.49
199;518.82446;0.49;518.82446_0.49
200;708.45764;0.5;708.45764_0.5
200;710.45428;0.51;710.45428_0.51
201;763.8468;0.48;763.8468_0.48
201;797.8421;0.48;797.8421_0.48
202;478.70914;0.5;478.70914_0.5
202;480.70627;0.5;480.70627_0.5
203;428.78214;0.5;428.78214_0.5
203;430.77899;0.5;430.77899_0.5
204;506.79813;0.49;506.79813_0.49
204;508.79584;0.49;508.79584_0.49
205;456.65433;0.51;456.65433_0.51
205;464.64243;0.51;464.64243_0.51
206;496.77023;0.49;496.77023_0.49
206;498.76666;0.49;498.76666_0.49
207;636.08594;0.6;636.08594_0.6
207;658.06787;0.61;658.06787_0.61
208;191.01958;0.7;191.01958_0.7
208;359.04892;0.7;359.04892_0.7
209;164.92668;0.45;164.92668_0.45
209;166.92375;0.45;166.92375_0.45
210;459.11279;0.7;459.11279_0.7
210;481.09436;0.7;481.09436_0.7
211;643.11285;0.59;643.11285_0.59
211;621.13055;0.6;621.13055_0.6
212;957.18683;0.58;957.18683_0.58
212;935.2041;0.59;935.2041_0.59
213;650.49835;0.51;650.49835_0.51
213;652.49548;0.51;652.49548_0.51
214;346.92413;0.53;346.92413_0.53
214;348.92166;0.53;348.92166_0.53
215;166.85985;0.53;166.85985_0.53
215;168.85693;0.53;168.85693_0.53
216;234.84837;0.5;234.84837_0.5
216;236.84512;0.5;236.84512_0.5
217;408.98056;0.57;408.98056_0.57
217;393.00656;0.58;393.00656_0.58
218;135.0289;0.56;135.0289_0.56
218;315.09402;0.56;315.09402_0.56
219;218.87404;0.5;218.87404_0.5
219;222.86819;0.5;222.86819_0.5
220;186.04514;0.7;186.04514_0.7
220;187.0415;0.7;187.0415_0.7
221;199.96916;0.55;199.96916_0.55
221;256.99103;0.61;256.99103_0.61
222;264.98898;0.7;264.98898_0.7
222;286.97101;0.71;286.97101_0.71
223;219.04507;0.54;219.04507_0.54
223;181.07114;0.55;181.07114_0.55
224;292.07269;0.54;292.07269_0.54
224;308.09952;0.58;308.09952_0.58
225;212.98061;0.64;212.98061_0.64
225;197.00648;0.65;197.00648_0.65
226;281.1011;3.66;281.1011_3.66
226;129.05432;3.69;129.05432_3.69
227;164.07109;2.22;164.07109_2.22
227;232.05878;2.23;232.05878_2.23
